<?xml version="1.0" encoding="UTF-8" standalone="no"?>
<!-- Created with Inkscape (http://www.inkscape.org/) -->

<svg
   xmlns:dc="http://purl.org/dc/elements/1.1/"
   xmlns:cc="http://creativecommons.org/ns#"
   xmlns:rdf="http://www.w3.org/1999/02/22-rdf-syntax-ns#"
   xmlns:svg="http://www.w3.org/2000/svg"
   xmlns="http://www.w3.org/2000/svg"
   xmlns:xlink="http://www.w3.org/1999/xlink"
   xmlns:sodipodi="http://sodipodi.sourceforge.net/DTD/sodipodi-0.dtd"
   xmlns:inkscape="http://www.inkscape.org/namespaces/inkscape"
   id="svg2"
   version="1.1"
   inkscape:version="0.48.2 r9819"
   width="585"
   height="382.5"
   xml:space="preserve"
   sodipodi:docname="deformation-vs-trajectory.svg"><metadata
     id="metadata8"><rdf:RDF><cc:Work
         rdf:about=""><dc:format>image/svg+xml</dc:format><dc:type
           rdf:resource="http://purl.org/dc/dcmitype/StillImage" /><dc:title /></cc:Work></rdf:RDF></metadata><defs
     id="defs6"><marker
   inkscape:stockid="TriangleInM"
   orient="auto"
   refY="0"
   refX="0"
   id="TriangleInM"
   style="overflow:visible"><path
     id="path4568"
     d="m 5.77,0 -8.65,5 0,-10 8.65,5 z"
     style="fill-rule:evenodd;stroke:#000000;stroke-width:1pt;marker-start:none"
     transform="scale(-0.4,-0.4)"
     inkscape:connector-curvature="0" /></marker><marker
   inkscape:stockid="TriangleInL"
   orient="auto"
   refY="0"
   refX="0"
   id="TriangleInL"
   style="overflow:visible"><path
     id="path4565"
     d="m 5.77,0 -8.65,5 0,-10 8.65,5 z"
     style="fill-rule:evenodd;stroke:#000000;stroke-width:1pt;marker-start:none"
     transform="scale(-0.8,-0.8)"
     inkscape:connector-curvature="0" /></marker><marker
   style="overflow:visible"
   inkscape:stockid="InfiniteLineEnd"
   id="InfiniteLineEnd"
   refX="0"
   refY="0"
   orient="auto"><g
     id="g4667"><circle
       id="circle4669"
       r="0.80000001"
       cy="0"
       cx="3"
       sodipodi:cx="3"
       sodipodi:cy="0"
       sodipodi:rx="0.80000001"
       sodipodi:ry="0.80000001" /><circle
       id="circle4671"
       r="0.80000001"
       cy="0"
       cx="6.5"
       sodipodi:cx="6.5"
       sodipodi:cy="0"
       sodipodi:rx="0.80000001"
       sodipodi:ry="0.80000001" /><circle
       id="circle4673"
       r="0.80000001"
       cy="0"
       cx="10"
       sodipodi:cx="10"
       sodipodi:cy="0"
       sodipodi:rx="0.80000001"
       sodipodi:ry="0.80000001" /></g></marker><marker
   inkscape:stockid="RazorWire"
   id="RazorWire"
   refX="0"
   refY="0"
   orient="auto">
       style=&quot;overflow:visible&quot;&gt;
      <path
   id="path4664"
   transform="scale(0.8,0.8)"
   style="fill:#808080;fill-opacity:1;fill-rule:evenodd;stroke:#000000;stroke-width:0.1pt"
   d="m 0.02272727,-0.74009011 0,1.4375 -7.78124997,2.31250001 18.4374997,0 -7.1874997,-2.31250001 0,-1.4375 7.2499997,-2.15624999 -18.4687497,0 7.74999997,2.15624999 z"
   inkscape:connector-curvature="0" /></marker><marker
   inkscape:stockid="Arrow2Mstart"
   orient="auto"
   refY="0"
   refX="0"
   id="Arrow2Mstart"
   style="overflow:visible"><path
     id="path4455"
     style="font-size:12px;fill-rule:evenodd;stroke-width:0.625;stroke-linejoin:round"
     d="M 8.7185878,4.0337352 -2.2072895,0.01601326 8.7185884,-4.0017078 c -1.7454984,2.3720609 -1.7354408,5.6174519 -6e-7,8.035443 z"
     transform="scale(0.6,0.6)"
     inkscape:connector-curvature="0" /></marker><marker
   inkscape:stockid="Arrow1Mend"
   orient="auto"
   refY="0"
   refX="0"
   id="Arrow1Mend"
   style="overflow:visible"><path
     id="path4440"
     d="M 0,0 5,-5 -12.5,0 5,5 0,0 z"
     style="fill-rule:evenodd;stroke:#000000;stroke-width:1pt;marker-start:none"
     transform="matrix(-0.4,0,0,-0.4,-4,0)"
     inkscape:connector-curvature="0" /></marker><marker
   inkscape:stockid="Arrow2Mend"
   orient="auto"
   refY="0"
   refX="0"
   id="Arrow2Mend"
   style="overflow:visible"><path
     id="path4458"
     style="font-size:12px;fill-rule:evenodd;stroke-width:0.625;stroke-linejoin:round"
     d="M 8.7185878,4.0337352 -2.2072895,0.01601326 8.7185884,-4.0017078 c -1.7454984,2.3720609 -1.7354408,5.6174519 -6e-7,8.035443 z"
     transform="scale(-0.6,-0.6)"
     inkscape:connector-curvature="0" /></marker><marker
   inkscape:stockid="Arrow2Lend"
   orient="auto"
   refY="0"
   refX="0"
   id="Arrow2Lend"
   style="overflow:visible"><path
     id="path4452"
     style="font-size:12px;fill-rule:evenodd;stroke-width:0.625;stroke-linejoin:round"
     d="M 8.7185878,4.0337352 -2.2072895,0.01601326 8.7185884,-4.0017078 c -1.7454984,2.3720609 -1.7354408,5.6174519 -6e-7,8.035443 z"
     transform="matrix(-1.1,0,0,-1.1,-1.1,0)"
     inkscape:connector-curvature="0" /></marker><linearGradient
   x1="663.03998"
   y1="909.46002"
   x2="663.03998"
   y2="123.62"
   gradientUnits="userSpaceOnUse"
   spreadMethod="pad"
   id="linearGradient20"><stop
     style="stop-opacity:1;stop-color:#007800"
     offset="0"
     id="stop22" /><stop
     style="stop-opacity:1;stop-color:#0000ff"
     offset="0.5"
     id="stop24" /><stop
     style="stop-opacity:1;stop-color:#0000ff"
     offset="0.5"
     id="stop26" /><stop
     style="stop-opacity:1;stop-color:#007800"
     offset="0.88"
     id="stop28" /><stop
     style="stop-opacity:1;stop-color:#007800"
     offset="1"
     id="stop30" /></linearGradient><linearGradient
   x1="663.02002"
   y1="912.58002"
   x2="663.02002"
   y2="122.62"
   gradientUnits="userSpaceOnUse"
   spreadMethod="pad"
   id="linearGradient36"><stop
     style="stop-opacity:1;stop-color:#007800"
     offset="0"
     id="stop38" /><stop
     style="stop-opacity:1;stop-color:#0000ff"
     offset="0.5"
     id="stop40" /><stop
     style="stop-opacity:1;stop-color:#0000ff"
     offset="0.5"
     id="stop42" /><stop
     style="stop-opacity:1;stop-color:#007800"
     offset="0.88"
     id="stop44" /><stop
     style="stop-opacity:1;stop-color:#007800"
     offset="1"
     id="stop46" /></linearGradient><clipPath
   clipPathUnits="userSpaceOnUse"
   id="clipPath62"><path
     d="m 112.8,122.88 550.92,0 0,393.72 -550.92,0 0,-393.72 z"
     clip-rule="evenodd"
     id="path64"
     inkscape:connector-curvature="0" /></clipPath><clipPath
   clipPathUnits="userSpaceOnUse"
   id="clipPath72"><path
     d="m 112.8,122.88 550.92,0 0,393.72 -550.92,0 0,-393.72 z"
     clip-rule="evenodd"
     id="path74"
     inkscape:connector-curvature="0" /></clipPath><clipPath
   clipPathUnits="userSpaceOnUse"
   id="clipPath82"><path
     d="m 112.8,122.88 550.92,0 0,393.72 -550.92,0 0,-393.72 z"
     clip-rule="evenodd"
     id="path84"
     inkscape:connector-curvature="0" /></clipPath><clipPath
   clipPathUnits="userSpaceOnUse"
   id="clipPath92"><path
     d="m 112.8,122.88 550.92,0 0,393.72 -550.92,0 0,-393.72 z"
     clip-rule="evenodd"
     id="path94"
     inkscape:connector-curvature="0" /></clipPath><clipPath
   clipPathUnits="userSpaceOnUse"
   id="clipPath104"><path
     d="m 50.4,63.24 682.68,0 0,494.76 -682.68,0 0,-494.76 z"
     clip-rule="evenodd"
     id="path106"
     inkscape:connector-curvature="0" /></clipPath><clipPath
   clipPathUnits="userSpaceOnUse"
   id="clipPath116"><path
     d="m 50.4,63.24 682.68,0 0,494.76 -682.68,0 0,-494.76 z"
     clip-rule="evenodd"
     id="path118"
     inkscape:connector-curvature="0" /></clipPath><clipPath
   clipPathUnits="userSpaceOnUse"
   id="clipPath124"><path
     d="m 50.4,63.24 682.68,0 0,494.76 -682.68,0 0,-494.76 z"
     clip-rule="evenodd"
     id="path126"
     inkscape:connector-curvature="0" /></clipPath><clipPath
   clipPathUnits="userSpaceOnUse"
   id="clipPath136"><path
     d="m 50.4,63.24 682.68,0 0,494.76 -682.68,0 0,-494.76 z"
     clip-rule="evenodd"
     id="path138"
     inkscape:connector-curvature="0" /></clipPath><clipPath
   clipPathUnits="userSpaceOnUse"
   id="clipPath148"><path
     d="m 50.4,63.24 682.68,0 0,494.76 -682.68,0 0,-494.76 z"
     clip-rule="evenodd"
     id="path150"
     inkscape:connector-curvature="0" /></clipPath><clipPath
   clipPathUnits="userSpaceOnUse"
   id="clipPath160"><path
     d="m 50.4,63.24 682.68,0 0,494.76 -682.68,0 0,-494.76 z"
     clip-rule="evenodd"
     id="path162"
     inkscape:connector-curvature="0" /></clipPath><clipPath
   clipPathUnits="userSpaceOnUse"
   id="clipPath172"><path
     d="m 50.4,63.24 682.68,0 0,494.76 -682.68,0 0,-494.76 z"
     clip-rule="evenodd"
     id="path174"
     inkscape:connector-curvature="0" /></clipPath><clipPath
   clipPathUnits="userSpaceOnUse"
   id="clipPath184"><path
     d="m 50.4,63.24 682.68,0 0,494.76 -682.68,0 0,-494.76 z"
     clip-rule="evenodd"
     id="path186"
     inkscape:connector-curvature="0" /></clipPath><clipPath
   clipPathUnits="userSpaceOnUse"
   id="clipPath196"><path
     d="m 50.4,63.24 682.68,0 0,494.76 -682.68,0 0,-494.76 z"
     clip-rule="evenodd"
     id="path198"
     inkscape:connector-curvature="0" /></clipPath><clipPath
   clipPathUnits="userSpaceOnUse"
   id="clipPath208"><path
     d="m 50.4,63.24 682.68,0 0,494.76 -682.68,0 0,-494.76 z"
     clip-rule="evenodd"
     id="path210"
     inkscape:connector-curvature="0" /></clipPath><clipPath
   clipPathUnits="userSpaceOnUse"
   id="clipPath220"><path
     d="m 50.4,63.24 682.68,0 0,494.76 -682.68,0 0,-494.76 z"
     clip-rule="evenodd"
     id="path222"
     inkscape:connector-curvature="0" /></clipPath><clipPath
   clipPathUnits="userSpaceOnUse"
   id="clipPath232"><path
     d="m 50.4,63.24 682.68,0 0,494.76 -682.68,0 0,-494.76 z"
     clip-rule="evenodd"
     id="path234"
     inkscape:connector-curvature="0" /></clipPath><clipPath
   clipPathUnits="userSpaceOnUse"
   id="clipPath244"><path
     d="m 50.4,63.24 682.68,0 0,494.76 -682.68,0 0,-494.76 z"
     clip-rule="evenodd"
     id="path246"
     inkscape:connector-curvature="0" /></clipPath><clipPath
   clipPathUnits="userSpaceOnUse"
   id="clipPath256"><path
     d="m 50.4,63.24 682.68,0 0,494.76 -682.68,0 0,-494.76 z"
     clip-rule="evenodd"
     id="path258"
     inkscape:connector-curvature="0" /></clipPath><clipPath
   clipPathUnits="userSpaceOnUse"
   id="clipPath268"><path
     d="m 50.4,63.24 682.68,0 0,494.76 -682.68,0 0,-494.76 z"
     clip-rule="evenodd"
     id="path270"
     inkscape:connector-curvature="0" /></clipPath><clipPath
   clipPathUnits="userSpaceOnUse"
   id="clipPath280"><path
     d="m 50.4,63.24 682.68,0 0,494.76 -682.68,0 0,-494.76 z"
     clip-rule="evenodd"
     id="path282"
     inkscape:connector-curvature="0" /></clipPath><clipPath
   clipPathUnits="userSpaceOnUse"
   id="clipPath292"><path
     d="m 50.4,63.24 682.68,0 0,494.76 -682.68,0 0,-494.76 z"
     clip-rule="evenodd"
     id="path294"
     inkscape:connector-curvature="0" /></clipPath><clipPath
   clipPathUnits="userSpaceOnUse"
   id="clipPath304"><path
     d="m 50.4,63.24 682.68,0 0,494.76 -682.68,0 0,-494.76 z"
     clip-rule="evenodd"
     id="path306"
     inkscape:connector-curvature="0" /></clipPath><clipPath
   clipPathUnits="userSpaceOnUse"
   id="clipPath316"><path
     d="m 50.4,63.24 682.68,0 0,494.76 -682.68,0 0,-494.76 z"
     clip-rule="evenodd"
     id="path318"
     inkscape:connector-curvature="0" /></clipPath><clipPath
   clipPathUnits="userSpaceOnUse"
   id="clipPath328"><path
     d="m 50.4,63.24 682.68,0 0,494.76 -682.68,0 0,-494.76 z"
     clip-rule="evenodd"
     id="path330"
     inkscape:connector-curvature="0" /></clipPath><clipPath
   clipPathUnits="userSpaceOnUse"
   id="clipPath340"><path
     d="m 50.4,63.24 682.68,0 0,494.76 -682.68,0 0,-494.76 z"
     clip-rule="evenodd"
     id="path342"
     inkscape:connector-curvature="0" /></clipPath><clipPath
   clipPathUnits="userSpaceOnUse"
   id="clipPath352"><path
     d="m 50.4,63.24 682.68,0 0,494.76 -682.68,0 0,-494.76 z"
     clip-rule="evenodd"
     id="path354"
     inkscape:connector-curvature="0" /></clipPath><clipPath
   clipPathUnits="userSpaceOnUse"
   id="clipPath364"><path
     d="m 50.4,63.24 682.68,0 0,494.76 -682.68,0 0,-494.76 z"
     clip-rule="evenodd"
     id="path366"
     inkscape:connector-curvature="0" /></clipPath><clipPath
   clipPathUnits="userSpaceOnUse"
   id="clipPath376"><path
     d="m 50.4,63.24 682.68,0 0,494.76 -682.68,0 0,-494.76 z"
     clip-rule="evenodd"
     id="path378"
     inkscape:connector-curvature="0" /></clipPath><clipPath
   clipPathUnits="userSpaceOnUse"
   id="clipPath388"><path
     d="m 50.4,63.24 682.68,0 0,494.76 -682.68,0 0,-494.76 z"
     clip-rule="evenodd"
     id="path390"
     inkscape:connector-curvature="0" /></clipPath><clipPath
   clipPathUnits="userSpaceOnUse"
   id="clipPath400"><path
     d="m 50.4,63.24 682.68,0 0,494.76 -682.68,0 0,-494.76 z"
     clip-rule="evenodd"
     id="path402"
     inkscape:connector-curvature="0" /></clipPath><clipPath
   clipPathUnits="userSpaceOnUse"
   id="clipPath412"><path
     d="m 50.4,63.24 682.68,0 0,494.76 -682.68,0 0,-494.76 z"
     clip-rule="evenodd"
     id="path414"
     inkscape:connector-curvature="0" /></clipPath><clipPath
   clipPathUnits="userSpaceOnUse"
   id="clipPath424"><path
     d="m 50.4,63.24 682.68,0 0,494.76 -682.68,0 0,-494.76 z"
     clip-rule="evenodd"
     id="path426"
     inkscape:connector-curvature="0" /></clipPath><clipPath
   clipPathUnits="userSpaceOnUse"
   id="clipPath436"><path
     d="m 50.4,63.24 682.68,0 0,494.76 -682.68,0 0,-494.76 z"
     clip-rule="evenodd"
     id="path438"
     inkscape:connector-curvature="0" /></clipPath><clipPath
   clipPathUnits="userSpaceOnUse"
   id="clipPath448"><path
     d="m 50.4,63.24 682.68,0 0,494.76 -682.68,0 0,-494.76 z"
     clip-rule="evenodd"
     id="path450"
     inkscape:connector-curvature="0" /></clipPath><clipPath
   clipPathUnits="userSpaceOnUse"
   id="clipPath460"><path
     d="m 50.4,63.24 682.68,0 0,494.76 -682.68,0 0,-494.76 z"
     clip-rule="evenodd"
     id="path462"
     inkscape:connector-curvature="0" /></clipPath><clipPath
   clipPathUnits="userSpaceOnUse"
   id="clipPath468"><path
     d="m 50.4,63.24 682.68,0 0,494.76 -682.68,0 0,-494.76 z"
     clip-rule="evenodd"
     id="path470"
     inkscape:connector-curvature="0" /></clipPath><clipPath
   clipPathUnits="userSpaceOnUse"
   id="clipPath480"><path
     d="m 50.4,63.24 682.68,0 0,494.76 -682.68,0 0,-494.76 z"
     clip-rule="evenodd"
     id="path482"
     inkscape:connector-curvature="0" /></clipPath><clipPath
   clipPathUnits="userSpaceOnUse"
   id="clipPath488"><path
     d="m 50.4,63.24 682.68,0 0,494.76 -682.68,0 0,-494.76 z"
     clip-rule="evenodd"
     id="path490"
     inkscape:connector-curvature="0" /></clipPath><clipPath
   clipPathUnits="userSpaceOnUse"
   id="clipPath500"><path
     d="m 50.4,63.24 682.68,0 0,494.76 -682.68,0 0,-494.76 z"
     clip-rule="evenodd"
     id="path502"
     inkscape:connector-curvature="0" /></clipPath><clipPath
   clipPathUnits="userSpaceOnUse"
   id="clipPath512"><path
     d="m 50.4,63.24 682.68,0 0,494.76 -682.68,0 0,-494.76 z"
     clip-rule="evenodd"
     id="path514"
     inkscape:connector-curvature="0" /></clipPath><clipPath
   clipPathUnits="userSpaceOnUse"
   id="clipPath520"><path
     d="m 50.4,63.24 682.68,0 0,494.76 -682.68,0 0,-494.76 z"
     clip-rule="evenodd"
     id="path522"
     inkscape:connector-curvature="0" /></clipPath><clipPath
   clipPathUnits="userSpaceOnUse"
   id="clipPath532"><path
     d="m 50.4,63.24 682.68,0 0,494.76 -682.68,0 0,-494.76 z"
     clip-rule="evenodd"
     id="path534"
     inkscape:connector-curvature="0" /></clipPath><clipPath
   clipPathUnits="userSpaceOnUse"
   id="clipPath542"><path
     d="m 50.4,63.24 682.68,0 0,494.76 -682.68,0 0,-494.76 z"
     clip-rule="evenodd"
     id="path544"
     inkscape:connector-curvature="0" /></clipPath><clipPath
   clipPathUnits="userSpaceOnUse"
   id="clipPath558"><path
     d="m 50.4,63.24 682.68,0 0,494.76 -682.68,0 0,-494.76 z"
     clip-rule="evenodd"
     id="path560"
     inkscape:connector-curvature="0" /></clipPath><clipPath
   clipPathUnits="userSpaceOnUse"
   id="clipPath574"><path
     d="m 50.4,63.24 682.68,0 0,494.76 -682.68,0 0,-494.76 z"
     clip-rule="evenodd"
     id="path576"
     inkscape:connector-curvature="0" /></clipPath><linearGradient
   inkscape:collect="always"
   xlink:href="#linearGradient36"
   id="linearGradient3744"
   gradientUnits="userSpaceOnUse"
   spreadMethod="pad"
   x1="663.02002"
   y1="912.58002"
   x2="663.02002"
   y2="122.62"
   gradientTransform="translate(50.4,-54)" /><linearGradient
   inkscape:collect="always"
   xlink:href="#linearGradient20"
   id="linearGradient3746"
   gradientUnits="userSpaceOnUse"
   spreadMethod="pad"
   x1="663.03998"
   y1="909.46002"
   x2="663.03998"
   y2="123.62"
   gradientTransform="translate(50.4,-54)" /><linearGradient
   inkscape:collect="always"
   xlink:href="#linearGradient20"
   id="linearGradient3454"
   gradientUnits="userSpaceOnUse"
   spreadMethod="pad"
   x1="663.03998"
   y1="909.46002"
   x2="663.03998"
   y2="123.62"
   gradientTransform="translate(-1.789315,-33.710412)" /><linearGradient
   inkscape:collect="always"
   xlink:href="#linearGradient36"
   id="linearGradient3580"
   gradientUnits="userSpaceOnUse"
   spreadMethod="pad"
   x1="663.02002"
   y1="912.58002"
   x2="663.02002"
   y2="122.62"
   gradientTransform="translate(-1.789315,-33.710412)" />



































</defs><sodipodi:namedview
     pagecolor="#ffffff"
     bordercolor="#666666"
     borderopacity="1"
     objecttolerance="10"
     gridtolerance="10"
     guidetolerance="10"
     inkscape:pageopacity="0"
     inkscape:pageshadow="2"
     inkscape:window-width="1440"
     inkscape:window-height="765"
     id="namedview4"
     showgrid="false"
     inkscape:zoom="0.7367557"
     inkscape:cx="390.07565"
     inkscape:cy="286.79188"
     inkscape:window-x="0"
     inkscape:window-y="0"
     inkscape:window-maximized="1"
     inkscape:current-layer="g10"
     inkscape:snap-bbox="false"
     inkscape:snap-page="true"
     fit-margin-top="0"
     fit-margin-left="0"
     fit-margin-right="0"
     fit-margin-bottom="0"
     inkscape:snap-global="true"
     inkscape:object-paths="false"
     inkscape:bbox-nodes="false"
     inkscape:snap-nodes="true"
     inkscape:bbox-paths="false"
     inkscape:snap-bbox-midpoints="false"
     inkscape:object-nodes="true"
     inkscape:snap-object-midpoints="true"
     inkscape:snap-smooth-nodes="true"
     units="in" /><g
     id="g10"
     inkscape:groupmode="layer"
     inkscape:label="deformationvstrajectory"
     transform="matrix(1.25,0,0,-1.25,2.2366437,542.75966)">































































<g
   id="g7656"
   style="display:none"><path
     inkscape:connector-curvature="0"
     d="m 126.75305,545.6913 25.05264,0"
     style="fill:none;stroke:#ff0000;stroke-width:2.4000001;stroke-linecap:round;stroke-linejoin:round;stroke-miterlimit:10;stroke-opacity:1;stroke-dasharray:none"
     id="path536"
     transform="translate(-1.9449153,2.593224)" /><path
     id="path66"
     style="fill:none;stroke:#ff0000;stroke-width:2.4000001;stroke-linecap:round;stroke-linejoin:miter;stroke-miterlimit:10;stroke-opacity:1;stroke-dasharray:none;stroke-dashoffset:0"
     d="m 62.4,493.68 22.92,14.76 22.92,-23.16 22.92,-17.64 22.92,1.68 22.92,1.2 22.92,-2.04 22.92,-3 22.92,-28.2 23.04,2.88 22.92,9.36 22.92,-13.2 22.92,5.52 22.92,-21.72 22.92,7.2 22.92,-19.2 22.92,-40.92 22.92,-24 22.92,2.52 22.92,-50.88 22.92,-10.8 22.92,-40.92 22.92,13.56 22.92,-0.84 22.92,-43.32"
     inkscape:connector-curvature="0" /></g><g
   id="g3635"
   transform="matrix(0.67740143,0,0,0.67740143,4.521339,42.954642)"><path
     id="path14"
     style="fill:none;stroke:#7f7f7f;stroke-width:0.95999998;stroke-linecap:butt;stroke-linejoin:round;stroke-miterlimit:10;stroke-opacity:1;stroke-dasharray:none"
     d="m 62.4,221.28 550.2,0 m -550.2,43.68 550.2,0 m -550.2,43.68 550.2,0 m -550.2,43.56 550.2,0 m -550.2,43.68 550.2,0 m -550.2,43.68 550.2,0 m -550.2,43.68 550.2,0 m -550.2,43.68 550.2,0 m -550.2,43.68 550.2,0"
     inkscape:connector-curvature="0" /><path
     id="path16"
     style="fill:none;stroke:#7f7f7f;stroke-width:0.95999998;stroke-linecap:butt;stroke-linejoin:round;stroke-miterlimit:10;stroke-opacity:1;stroke-dasharray:none"
     d="m 154.08,570.6 0,-393 m 91.68,393 0,-393 m 91.8,393 0,-393 m 91.68,393 0,-393 m 91.68,393 0,-393 m 91.68,393 0,-393"
     inkscape:connector-curvature="0" /><path
     id="path54"
     style="fill:none;stroke:#000000;stroke-width:0.95999998;stroke-linecap:butt;stroke-linejoin:round;stroke-miterlimit:10;stroke-opacity:1;stroke-dasharray:none"
     d="m 62.4,177.6 550.2,0"
     inkscape:connector-curvature="0" /><path
     id="path56"
     style="fill:none;stroke:#000000;stroke-width:0.95999998;stroke-linecap:butt;stroke-linejoin:round;stroke-miterlimit:10;stroke-opacity:1;stroke-dasharray:none"
     d="m 62.4,180.96 0,-3.36 m 22.92,3.36 0,-3.36 m 22.92,3.36 0,-3.36 m 22.92,3.36 0,-3.36 m 22.92,3.36 0,-3.36 m 22.92,3.36 0,-3.36 m 22.92,3.36 0,-3.36 m 22.92,3.36 0,-3.36 m 22.92,3.36 0,-3.36 m 23.04,3.36 0,-3.36 m 22.92,3.36 0,-3.36 m 22.92,3.36 0,-3.36 m 22.92,3.36 0,-3.36 m 22.92,3.36 0,-3.36 m 22.92,3.36 0,-3.36 m 22.92,3.36 0,-3.36 m 22.92,3.36 0,-3.36 m 22.92,3.36 0,-3.36 m 22.92,3.36 0,-3.36 m 22.92,3.36 0,-3.36 m 22.92,3.36 0,-3.36 m 22.92,3.36 0,-3.36 m 22.92,3.36 0,-3.36 m 22.92,3.36 0,-3.36 m 22.92,3.36 0,-3.36 m -550.2,4.44 0,-8.88 m 91.68,8.88 0,-8.88 m 91.68,8.88 0,-8.88 m 91.8,8.88 0,-8.88 m 91.68,8.88 0,-8.88 m 91.68,8.88 0,-8.88 m 91.68,8.88 0,-8.88"
     inkscape:connector-curvature="0" /><path
     inkscape:connector-curvature="0"
     d="m 608.16,178.62 8.91,0 0,-2 -8.91,0 0,2 z m 0,43.66 8.91,0 0,-2 -8.91,0 0,2 z m 0,43.68 8.91,0 0,-2 -8.91,0 0,2 z m 0,43.68 8.91,0 0,-2 -8.91,0 0,2 z m 0,43.56 8.91,0 0,-2 -8.91,0 0,2 z m 0,43.68 8.91,0 0,-2 -8.91,0 0,2 z m 0,43.68 8.91,0 0,-2 -8.91,0 0,2 z m 0,43.68 8.91,0 0,-2 -8.91,0 0,2 z m 0,43.68 8.91,0 0,-2 -8.91,0 0,2 z m 0,43.68 8.91,0 0,-2 -8.91,0 0,2 z"
     style="fill:url(#linearGradient3580);fill-opacity:1;fill-rule:nonzero;stroke:none"
     id="path48" /><path
     sodipodi:nodetypes="cc"
     id="path76"
     style="fill:none;stroke:#000000;stroke-width:4.80000019;stroke-linecap:butt;stroke-linejoin:round;stroke-miterlimit:10;stroke-opacity:1;stroke-dasharray:2.4, 2.4;stroke-dashoffset:0;marker-start:none"
     d="m 64.353698,439.56 c 1320.790902,0 355.619242,0 546.024432,0"
     inkscape:connector-curvature="0" /><path
     id="path50"
     style="fill:none;stroke:#ff0000;stroke-width:1.91999996;stroke-linecap:butt;stroke-linejoin:round;stroke-miterlimit:10;stroke-opacity:1;stroke-dasharray:none"
     d="m 62.4,177.6 0,393"
     inkscape:connector-curvature="0" /><text
     style="font-size:19.20000076px"
     y="-176.74776"
     x="624.55408"
     id="text128"
     transform="scale(1,-1)"><tspan
       id="tspan130"
       sodipodi:role="line"
       y="-176.74776"
       x="624.55408"
       style="font-size:19.20000076px;font-variant:normal;font-weight:normal;writing-mode:lr-tb;fill:#000000;fill-opacity:1;fill-rule:nonzero;stroke:none;font-family:Cambria Math;-inkscape-font-specification:Cambria Math">40</tspan></text>
<text
     style="font-size:19.20000076px"
     y="-214.88716"
     x="623.86969"
     id="text140"
     transform="scale(1,-1)"><tspan
       id="tspan142"
       sodipodi:role="line"
       y="-214.88716"
       x="623.86969"
       style="font-size:19.20000076px;font-variant:normal;font-weight:normal;writing-mode:lr-tb;fill:#000000;fill-opacity:1;fill-rule:nonzero;stroke:none;font-family:Cambria Math;-inkscape-font-specification:Cambria Math">50</tspan></text>
<text
     style="font-size:19.20000076px"
     y="-258.56717"
     x="624.05719"
     id="text152"
     transform="scale(1,-1)"><tspan
       id="tspan154"
       sodipodi:role="line"
       y="-258.56717"
       x="624.05719"
       style="font-size:19.20000076px;font-variant:normal;font-weight:normal;writing-mode:lr-tb;fill:#000000;fill-opacity:1;fill-rule:nonzero;stroke:none;font-family:Cambria Math;-inkscape-font-specification:Cambria Math">60</tspan></text>
<text
     style="font-size:19.20000076px"
     y="-302.22717"
     x="623.88843"
     id="text164"
     transform="scale(1,-1)"><tspan
       id="tspan166"
       sodipodi:role="line"
       y="-302.22717"
       x="623.88843"
       style="font-size:19.20000076px;font-variant:normal;font-weight:normal;writing-mode:lr-tb;fill:#000000;fill-opacity:1;fill-rule:nonzero;stroke:none;font-family:Cambria Math;-inkscape-font-specification:Cambria Math">70</tspan></text>
<text
     style="font-size:19.20000076px"
     y="-345.90717"
     x="624.23529"
     id="text176"
     transform="scale(1,-1)"><tspan
       id="tspan178"
       sodipodi:role="line"
       y="-345.90717"
       x="624.23529"
       style="font-size:19.20000076px;font-variant:normal;font-weight:normal;writing-mode:lr-tb;fill:#000000;fill-opacity:1;fill-rule:nonzero;stroke:none;font-family:Cambria Math;-inkscape-font-specification:Cambria Math">80</tspan></text>
<text
     style="font-size:19.20000076px"
     y="-389.55716"
     x="624.33844"
     id="text188"
     transform="scale(1,-1)"><tspan
       id="tspan190"
       sodipodi:role="line"
       y="-389.55716"
       x="624.33844"
       style="font-size:19.20000076px;font-variant:normal;font-weight:normal;writing-mode:lr-tb;fill:#000000;fill-opacity:1;fill-rule:nonzero;stroke:none;font-family:Cambria Math;-inkscape-font-specification:Cambria Math">90</tspan></text>
<text
     style="font-size:19.20000076px"
     y="-433.23715"
     x="623.60718"
     id="text200"
     transform="scale(1,-1)"><tspan
       id="tspan202"
       sodipodi:role="line"
       y="-433.23715"
       x="623.60718"
       style="font-size:19.20000076px;font-variant:normal;font-weight:normal;writing-mode:lr-tb;fill:#000000;fill-opacity:1;fill-rule:nonzero;stroke:none;font-family:Cambria Math;-inkscape-font-specification:Cambria Math">100</tspan></text>
<text
     style="font-size:19.20000076px"
     y="-476.89716"
     x="623.60718"
     id="text212"
     transform="scale(1,-1)"><tspan
       id="tspan214"
       sodipodi:role="line"
       y="-476.89716"
       x="623.60718"
       style="font-size:19.20000076px;font-variant:normal;font-weight:normal;writing-mode:lr-tb;fill:#000000;fill-opacity:1;fill-rule:nonzero;stroke:none;font-family:Cambria Math;-inkscape-font-specification:Cambria Math">110</tspan></text>
<text
     style="font-size:19.20000076px"
     y="-520.57715"
     x="623.60718"
     id="text224"
     transform="scale(1,-1)"><tspan
       id="tspan226"
       sodipodi:role="line"
       y="-520.57715"
       x="623.60718"
       style="font-size:19.20000076px;font-variant:normal;font-weight:normal;writing-mode:lr-tb;fill:#000000;fill-opacity:1;fill-rule:nonzero;stroke:none;font-family:Cambria Math;-inkscape-font-specification:Cambria Math">120</tspan></text>
<text
     style="font-size:19.20000076px"
     y="-564.23718"
     x="623.60718"
     id="text236"
     transform="scale(1,-1)"><tspan
       id="tspan238"
       sodipodi:role="line"
       y="-564.23718"
       x="623.60718"
       style="font-size:19.20000076px;font-variant:normal;font-weight:normal;writing-mode:lr-tb;fill:#000000;fill-opacity:1;fill-rule:nonzero;stroke:none;font-family:Cambria Math;-inkscape-font-specification:Cambria Math">130</tspan></text>
<text
     style="font-size:19.20000076px"
     y="-176.22894"
     x="42.887318"
     id="text248"
     transform="scale(1,-1)"><tspan
       id="tspan250"
       y="-176.22894"
       x="42.887318"
       style="font-size:19.20000076px;font-variant:normal;font-weight:normal;writing-mode:lr-tb;fill:#000000;fill-opacity:1;fill-rule:nonzero;stroke:none;font-family:Cambria Math;-inkscape-font-specification:Cambria Math">0</tspan></text>
<text
     style="font-size:19.20000076px"
     y="-215.52394"
     x="43.11232"
     id="text260"
     transform="scale(1,-1)"><tspan
       id="tspan262"
       y="-215.52394"
       x="43.11232"
       style="font-size:19.20000076px;font-variant:normal;font-weight:normal;writing-mode:lr-tb;fill:#000000;fill-opacity:1;fill-rule:nonzero;stroke:none;font-family:Cambria Math;-inkscape-font-specification:Cambria Math">5</tspan></text>
<text
     style="font-size:19.20000076px"
     y="-259.20395"
     x="32.23732"
     id="text272"
     transform="scale(1,-1)"><tspan
       id="tspan274"
       sodipodi:role="line"
       y="-259.20395"
       x="32.23732"
       style="font-size:19.20000076px;font-variant:normal;font-weight:normal;writing-mode:lr-tb;fill:#000000;fill-opacity:1;fill-rule:nonzero;stroke:none;font-family:Cambria Math;-inkscape-font-specification:Cambria Math">10</tspan></text>
<text
     style="font-size:19.20000076px"
     y="-302.86395"
     x="32.462318"
     id="text284"
     transform="scale(1,-1)"><tspan
       id="tspan286"
       sodipodi:role="line"
       y="-302.86395"
       x="32.462318"
       style="font-size:19.20000076px;font-variant:normal;font-weight:normal;writing-mode:lr-tb;fill:#000000;fill-opacity:1;fill-rule:nonzero;stroke:none;font-family:Cambria Math;-inkscape-font-specification:Cambria Math">15</tspan></text>
<text
     style="font-size:19.20000076px"
     y="-346.54395"
     x="32.23732"
     id="text296"
     transform="scale(1,-1)"><tspan
       id="tspan298"
       sodipodi:role="line"
       y="-346.54395"
       x="32.23732"
       style="font-size:19.20000076px;font-variant:normal;font-weight:normal;writing-mode:lr-tb;fill:#000000;fill-opacity:1;fill-rule:nonzero;stroke:none;font-family:Cambria Math;-inkscape-font-specification:Cambria Math">20</tspan></text>
<text
     style="font-size:19.20000076px"
     y="-390.19394"
     x="32.462318"
     id="text308"
     transform="scale(1,-1)"><tspan
       id="tspan310"
       sodipodi:role="line"
       y="-390.19394"
       x="32.462318"
       style="font-size:19.20000076px;font-variant:normal;font-weight:normal;writing-mode:lr-tb;fill:#000000;fill-opacity:1;fill-rule:nonzero;stroke:none;font-family:Cambria Math;-inkscape-font-specification:Cambria Math">25</tspan></text>
<text
     style="font-size:19.20000076px"
     y="-433.87393"
     x="32.23732"
     id="text320"
     transform="scale(1,-1)"><tspan
       id="tspan322"
       sodipodi:role="line"
       y="-433.87393"
       x="32.23732"
       style="font-size:19.20000076px;font-variant:normal;font-weight:normal;writing-mode:lr-tb;fill:#000000;fill-opacity:1;fill-rule:nonzero;stroke:none;font-family:Cambria Math;-inkscape-font-specification:Cambria Math">30</tspan></text>
<text
     style="font-size:19.20000076px"
     y="-477.53394"
     x="32.462318"
     id="text332"
     transform="scale(1,-1)"><tspan
       id="tspan334"
       sodipodi:role="line"
       y="-477.53394"
       x="32.462318"
       style="font-size:19.20000076px;font-variant:normal;font-weight:normal;writing-mode:lr-tb;fill:#000000;fill-opacity:1;fill-rule:nonzero;stroke:none;font-family:Cambria Math;-inkscape-font-specification:Cambria Math">35</tspan></text>
<text
     style="font-size:19.20000076px"
     y="-521.21393"
     x="32.23732"
     id="text344"
     transform="scale(1,-1)"><tspan
       id="tspan346"
       sodipodi:role="line"
       y="-521.21393"
       x="32.23732"
       style="font-size:19.20000076px;font-variant:normal;font-weight:normal;writing-mode:lr-tb;fill:#000000;fill-opacity:1;fill-rule:nonzero;stroke:none;font-family:Cambria Math;-inkscape-font-specification:Cambria Math">40</tspan></text>
<text
     style="font-size:19.20000076px"
     y="-564.87396"
     x="32.462318"
     id="text356"
     transform="scale(1,-1)"><tspan
       id="tspan358"
       sodipodi:role="line"
       y="-564.87396"
       x="32.462318"
       style="font-size:19.20000076px;font-variant:normal;font-weight:normal;writing-mode:lr-tb;fill:#000000;fill-opacity:1;fill-rule:nonzero;stroke:none;font-family:Cambria Math;-inkscape-font-specification:Cambria Math">45</tspan></text>
<text
     style="font-size:19.20000076px"
     y="-155.33"
     x="55.586842"
     id="text368"
     transform="scale(1,-1)"><tspan
       id="tspan370"
       sodipodi:role="line"
       y="-155.33"
       x="55.586842"
       style="font-size:19.20000076px;font-variant:normal;font-weight:normal;writing-mode:lr-tb;fill:#000000;fill-opacity:1;fill-rule:nonzero;stroke:none;font-family:Cambria Math;-inkscape-font-specification:Cambria Math">36</tspan></text>
<text
     style="font-size:19.20000076px"
     y="-155.33"
     x="142.96184"
     id="text380"
     transform="scale(1,-1)"><tspan
       id="tspan382"
       sodipodi:role="line"
       y="-155.33"
       x="142.96184"
       style="font-size:19.20000076px;font-variant:normal;font-weight:normal;writing-mode:lr-tb;fill:#000000;fill-opacity:1;fill-rule:nonzero;stroke:none;font-family:Cambria Math;-inkscape-font-specification:Cambria Math">40</tspan></text>
<text
     style="font-size:19.20000076px"
     y="-155.33"
     x="234.69185"
     id="text392"
     transform="scale(1,-1)"><tspan
       id="tspan394"
       sodipodi:role="line"
       y="-155.33"
       x="234.69185"
       style="font-size:19.20000076px;font-variant:normal;font-weight:normal;writing-mode:lr-tb;fill:#000000;fill-opacity:1;fill-rule:nonzero;stroke:none;font-family:Cambria Math;-inkscape-font-specification:Cambria Math">44</tspan></text>
<text
     style="font-size:19.20000076px"
     y="-155.33"
     x="326.39182"
     id="text404"
     transform="scale(1,-1)"><tspan
       id="tspan406"
       sodipodi:role="line"
       y="-155.33"
       x="326.39182"
       style="font-size:19.20000076px;font-variant:normal;font-weight:normal;writing-mode:lr-tb;fill:#000000;fill-opacity:1;fill-rule:nonzero;stroke:none;font-family:Cambria Math;-inkscape-font-specification:Cambria Math">48</tspan></text>
<text
     style="font-size:19.20000076px"
     y="-155.33"
     x="418.12183"
     id="text416"
     transform="scale(1,-1)"><tspan
       id="tspan418"
       sodipodi:role="line"
       y="-155.33"
       x="418.12183"
       style="font-size:19.20000076px;font-variant:normal;font-weight:normal;writing-mode:lr-tb;fill:#000000;fill-opacity:1;fill-rule:nonzero;stroke:none;font-family:Cambria Math;-inkscape-font-specification:Cambria Math">52</tspan></text>
<text
     style="font-size:19.20000076px"
     y="-155.33"
     x="509.85181"
     id="text428"
     transform="scale(1,-1)"><tspan
       id="tspan430"
       sodipodi:role="line"
       y="-155.33"
       x="509.85181"
       style="font-size:19.20000076px;font-variant:normal;font-weight:normal;writing-mode:lr-tb;fill:#000000;fill-opacity:1;fill-rule:nonzero;stroke:none;font-family:Cambria Math;-inkscape-font-specification:Cambria Math">56</tspan></text>
<text
     style="font-size:19.20000076px"
     y="-155.33"
     x="597.98615"
     id="text440"
     transform="scale(1,-1)"><tspan
       id="tspan442"
       sodipodi:role="line"
       y="-155.33"
       x="597.98615"
       style="font-size:19.20000076px;font-variant:normal;font-weight:normal;writing-mode:lr-tb;fill:#000000;fill-opacity:1;fill-rule:nonzero;stroke:none;font-family:Cambria Math;-inkscape-font-specification:Cambria Math">60</tspan></text>
<text
     style="font-size:22.39999962px"
     y="681.55945"
     x="272.81897"
     id="text452"
     transform="matrix(0,1,1,0,0,0)"><tspan
       id="tspan454"
       sodipodi:role="line"
       y="681.55945"
       x="272.81897"
       style="font-size:22.39999962px;font-variant:normal;font-weight:normal;writing-mode:lr-tb;fill:#000000;fill-opacity:1;fill-rule:nonzero;stroke:none;font-family:Cambria Math;-inkscape-font-specification:Cambria Math">Feature height   (µm)</tspan></text>
<text
     style="font-size:22.39999962px"
     y="14.015372"
     x="239.56897"
     id="text472"
     transform="matrix(0,1,1,0,0,0)"><tspan
       id="tspan474"
       sodipodi:role="line"
       y="14.015372"
       x="239.56897"
       style="font-size:22.39999962px;font-variant:normal;font-weight:normal;writing-mode:lr-tb;fill:#000000;fill-opacity:1;fill-rule:nonzero;stroke:none;font-family:Cambria Math;-inkscape-font-specification:Cambria Math">Feature tip angle   (degrees)</tspan></text>
<text
     style="font-size:22.39999962px"
     y="-133.15199"
     x="187.1937"
     id="text492"
     transform="scale(1,-1)"><tspan
       id="tspan494"
       sodipodi:role="line"
       y="-133.15199"
       x="187.1937"
       style="font-size:22.39999962px;font-variant:normal;font-weight:normal;writing-mode:lr-tb;fill:#000000;fill-opacity:1;fill-rule:nonzero;stroke:none;font-family:Cambria Math;-inkscape-font-specification:Cambria Math">Trajectory angle </tspan></text>
<text
     style="font-size:22.39999962px"
     y="-133.15199"
     x="307.63043"
     id="text504"
     transform="matrix(1,0,-0.33330001,-1,0,0)"><tspan
       style="font-size:22.39999962px;font-style:normal;font-variant:normal;font-weight:normal;font-stretch:normal;font-family:Cambria Math;-inkscape-font-specification:Cambria Math"
       y="-133.15199"
       x="307.63043"
       id="tspan3557"
       sodipodi:role="line">θ</tspan></text>
<text
     style="font-size:22.39999962px"
     y="-133.15199"
     x="381.05527"
     id="text524"
     transform="scale(1,-1)"><tspan
       id="tspan526"
       sodipodi:role="line"
       y="-133.15199"
       x="381.05527"
       style="font-size:22.39999962px;font-variant:normal;font-weight:normal;writing-mode:lr-tb;fill:#000000;fill-opacity:1;fill-rule:nonzero;stroke:none;font-family:Cambria Math;-inkscape-font-specification:Cambria Math">(degrees)</tspan></text>
<g
     transform="translate(-1.9449153,2.5932204)"
     id="g7663"><path
   inkscape:connector-curvature="0"
   d="m 116.70398,531.56651 284.47687,0 0,30.43618 -284.47687,0 0,-30.43618 z"
   style="fill:#ffffff;fill-opacity:1;fill-rule:evenodd;stroke:#000000;stroke-width:0.80000001;stroke-miterlimit:4;stroke-dasharray:none"
   id="path98" /><text
   transform="scale(1,-1)"
   id="text546"
   x="161.10257"
   y="-541.0788"
   style="font-size:19.20000076px"><tspan
     style="font-size:19.20000076px;font-variant:normal;font-weight:normal;writing-mode:lr-tb;fill:#000000;fill-opacity:1;fill-rule:nonzero;stroke:none;font-family:Cambria Math;-inkscape-font-specification:Cambria Math"
     x="161.10257"
     y="-541.0788"
     sodipodi:role="line"
     id="tspan548">Completed Feature tip angle</tspan></text>


</g><path
     inkscape:connector-curvature="0"
     d="m 611.64,177.62 0,392.92 2,0 0,-392.92 -2,0 z"
     style="fill:url(#linearGradient3454);fill-opacity:1;fill-rule:nonzero;stroke:none"
     id="path32" /><path
     id="path52"
     style="fill:none;stroke:#ff0000;stroke-width:1.91999996;stroke-linecap:butt;stroke-linejoin:round;stroke-miterlimit:10;stroke-opacity:1;stroke-dasharray:none"
     d="m 57.96,177.6 8.88,0 m -8.88,43.68 8.88,0 m -8.88,43.68 8.88,0 m -8.88,43.68 8.88,0 m -8.88,43.56 8.88,0 m -8.88,43.68 8.88,0 m -8.88,43.68 8.88,0 m -8.88,43.68 8.88,0 m -8.88,43.68 8.88,0 m -8.88,43.68 8.88,0"
     inkscape:connector-curvature="0" /><g
     id="g7651"><rect
   style="fill:#ffffff;stroke:#000000;stroke-width:0.80000007;stroke-linecap:butt;stroke-linejoin:miter;stroke-miterlimit:10;stroke-opacity:1;stroke-dasharray:none;stroke-dashoffset:0"
   id="rect7618"
   width="264.05048"
   height="81.140579"
   x="250.29784"
   y="-273.10306"
   transform="scale(1,-1)" /><text
   transform="scale(1,-1)"
   id="text108"
   x="291.43066"
   y="-202.12814"
   style="font-size:19.20000076px"><tspan
     style="font-size:19.20000076px;font-variant:normal;font-weight:normal;writing-mode:lr-tb;fill:#000000;fill-opacity:1;fill-rule:nonzero;stroke:none;font-family:Cambria Math;-inkscape-font-specification:Cambria Math"
     x="291.43066"
     y="-202.12814"
     sodipodi:role="line"
     id="tspan110">Nominal height</tspan></text>


<g
   style="display:none"
   id="g6634"><path
     inkscape:connector-curvature="0"
     d="m 62.4,213.36 22.92,9.72 22.92,7.2 22.92,7.92 22.92,8.64 22.92,14.04 22.92,5.04 22.92,8.16 22.92,15.48 23.04,13.44 22.92,18.84 22.92,7.08 22.92,19.68 22.92,6.48 22.92,23.52 22.92,22.08 22.92,33.36 22.92,9.72 22.92,22.56 22.92,28.32 22.92,52.56 22.92,-34.08 22.92,-26.4 22.92,-33.36 L 612.6,435"
     style="fill:none;stroke:#0000ff;stroke-width:2.4000001;stroke-linecap:round;stroke-linejoin:miter;stroke-miterlimit:10;stroke-opacity:1;stroke-dasharray:7.2, 7.2;stroke-dashoffset:0"
     id="path86" /><path
     inkscape:connector-curvature="0"
     d="m 257.06238,256.52024 25.05263,0"
     style="fill:none;stroke:#0000ff;stroke-width:2.4000001;stroke-linecap:round;stroke-linejoin:round;stroke-miterlimit:10;stroke-opacity:1;stroke-dasharray:7.2, 7.2;stroke-dashoffset:12.96"
     id="path552" /></g><text
   transform="scale(1,-1)"
   id="text562"
   x="291.39316"
   y="-251.90775"><tspan
     style="font-size:19.20000076px;font-variant:normal;font-weight:normal;writing-mode:lr-tb;fill:#000000;fill-opacity:1;fill-rule:nonzero;stroke:none;font-family:Cambria Math;-inkscape-font-specification:Cambria Math"
     sodipodi:role="line"
     id="tspan564"
     x="291.39316"
     y="-251.90775">Incipient Feature height</tspan></text>


<g
   style="display:none"
   id="g7549"><path
     inkscape:connector-curvature="0"
     d="m 62.4,201.36 22.92,14.76 22.92,8.04 22.92,17.28 22.92,8.16 22.92,10.56 22.92,10.56 22.92,2.76 22.92,19.8 23.04,9.24 22.92,8.04 22.92,-11.88 22.92,18.24 22.92,17.52 22.92,2.88 22.92,18.96 22.92,34.08 22.92,35.04 22.92,-0.48 22.92,20.16 22.92,34.8 22.92,-42.84 22.92,-30.84 22.92,-31.44 22.92,-44.52"
     style="fill:none;stroke:#007800;stroke-width:2.4000001;stroke-linecap:round;stroke-linejoin:round;stroke-miterlimit:10;stroke-opacity:1;stroke-dasharray:4.8, 4.8;stroke-dashoffset:0"
     id="path96" /><path
     inkscape:connector-curvature="0"
     d="m 257.06238,231.63044 25.05263,0"
     style="fill:none;stroke:#007800;stroke-width:2.4000001;stroke-linecap:round;stroke-linejoin:round;stroke-miterlimit:10;stroke-opacity:1;stroke-dasharray:4.8, 4.8;stroke-dashoffset:0"
     id="path568" /></g><text
   transform="scale(1,-1)"
   id="text578"
   x="291.41193"
   y="-227.01794"><tspan
     style="font-size:19.20000076px;font-variant:normal;font-weight:normal;writing-mode:lr-tb;fill:#000000;fill-opacity:1;fill-rule:nonzero;stroke:none;font-family:Cambria Math;-inkscape-font-specification:Cambria Math"
     sodipodi:role="line"
     id="tspan580"
     x="291.41193"
     y="-227.01794">Completed Feature height </tspan></text>


<path
   sodipodi:nodetypes="cc"
   id="path7585"
   style="fill:none;stroke:#000000;stroke-width:4.79999971;stroke-linecap:butt;stroke-linejoin:round;stroke-miterlimit:10;stroke-opacity:1;stroke-dasharray:2.40000003, 2.40000003;stroke-dashoffset:0;marker-start:none"
   d="m 258.35733,206.74064 c 54.3356,0 14.62972,0 22.46273,0"
   inkscape:connector-curvature="0" /></g><g
     id="g7556"><path
       d="m 62.4,208.56 7.2,-7.2 -7.2,-7.2 -7.2,7.2 7.2,7.2 z"
       style="fill:none;stroke:#007800;stroke-width:2;stroke-linecap:butt;stroke-linejoin:round;stroke-miterlimit:10;stroke-opacity:1;stroke-dasharray:none"
       id="path160"
       inkscape:connector-curvature="0" /><path
       inkscape:connector-curvature="0"
       id="path7498"
       style="fill:none;stroke:#007800;stroke-width:2;stroke-linecap:butt;stroke-linejoin:round;stroke-miterlimit:10;stroke-opacity:1;stroke-dasharray:none"
       d="m 85.32,223.32 7.2,-7.2 -7.2,-7.2 -7.2,7.2 7.2,7.2 z" /><path
       d="m 108.24,231.36 7.2,-7.2 -7.2,-7.2 -7.2,7.2 7.2,7.2 z"
       style="fill:none;stroke:#007800;stroke-width:2;stroke-linecap:butt;stroke-linejoin:round;stroke-miterlimit:10;stroke-opacity:1;stroke-dasharray:none"
       id="path7500"
       inkscape:connector-curvature="0" /><path
       inkscape:connector-curvature="0"
       id="path7502"
       style="fill:none;stroke:#007800;stroke-width:2;stroke-linecap:butt;stroke-linejoin:round;stroke-miterlimit:10;stroke-opacity:1;stroke-dasharray:none"
       d="m 131.16,248.64 7.2,-7.2 -7.2,-7.2 -7.2,7.2 7.2,7.2 z" /><path
       d="m 154.08,256.8 7.2,-7.2 -7.2,-7.2 -7.2,7.2 7.2,7.2 z"
       style="fill:none;stroke:#007800;stroke-width:2;stroke-linecap:butt;stroke-linejoin:round;stroke-miterlimit:10;stroke-opacity:1;stroke-dasharray:none"
       id="path7504"
       inkscape:connector-curvature="0" /><path
       inkscape:connector-curvature="0"
       id="path7506"
       style="fill:none;stroke:#007800;stroke-width:2;stroke-linecap:butt;stroke-linejoin:round;stroke-miterlimit:10;stroke-opacity:1;stroke-dasharray:none"
       d="m 177,267.36 7.2,-7.2 -7.2,-7.2 -7.2,7.2 7.2,7.2 z" /><path
       d="m 199.92,277.92 7.2,-7.2 -7.2,-7.2 -7.2,7.2 7.2,7.2 z"
       style="fill:none;stroke:#007800;stroke-width:2;stroke-linecap:butt;stroke-linejoin:round;stroke-miterlimit:10;stroke-opacity:1;stroke-dasharray:none"
       id="path7508"
       inkscape:connector-curvature="0" /><path
       inkscape:connector-curvature="0"
       id="path7510"
       style="fill:none;stroke:#007800;stroke-width:2;stroke-linecap:butt;stroke-linejoin:round;stroke-miterlimit:10;stroke-opacity:1;stroke-dasharray:none"
       d="m 222.84,280.68 7.2,-7.2 -7.2,-7.2 -7.2,7.2 7.2,7.2 z" /><path
       d="m 245.76,300.48 7.2,-7.2 -7.2,-7.2 -7.2,7.2 7.2,7.2 z"
       style="fill:none;stroke:#007800;stroke-width:2;stroke-linecap:butt;stroke-linejoin:round;stroke-miterlimit:10;stroke-opacity:1;stroke-dasharray:none"
       id="path7512"
       inkscape:connector-curvature="0" /><path
       inkscape:connector-curvature="0"
       id="path7514"
       style="fill:none;stroke:#007800;stroke-width:2;stroke-linecap:butt;stroke-linejoin:round;stroke-miterlimit:10;stroke-opacity:1;stroke-dasharray:none"
       d="m 268.8,309.72 7.2,-7.2 -7.2,-7.2 -7.2,7.2 7.2,7.2 z" /><path
       d="m 291.72,317.76 7.2,-7.2 -7.2,-7.2 -7.2,7.2 7.2,7.2 z"
       style="fill:none;stroke:#007800;stroke-width:2;stroke-linecap:butt;stroke-linejoin:round;stroke-miterlimit:10;stroke-opacity:1;stroke-dasharray:none"
       id="path7516"
       inkscape:connector-curvature="0" /><path
       inkscape:connector-curvature="0"
       id="path7518"
       style="fill:none;stroke:#007800;stroke-width:2;stroke-linecap:butt;stroke-linejoin:round;stroke-miterlimit:10;stroke-opacity:1;stroke-dasharray:none"
       d="m 314.64,305.88 7.2,-7.2 -7.2,-7.2 -7.2,7.2 7.2,7.2 z" /><path
       d="m 337.56,324.12 7.2,-7.2 -7.2,-7.2 -7.2,7.2 7.2,7.2 z"
       style="fill:none;stroke:#007800;stroke-width:2;stroke-linecap:butt;stroke-linejoin:round;stroke-miterlimit:10;stroke-opacity:1;stroke-dasharray:none"
       id="path7520"
       inkscape:connector-curvature="0" /><path
       inkscape:connector-curvature="0"
       id="path7522"
       style="fill:none;stroke:#007800;stroke-width:2;stroke-linecap:butt;stroke-linejoin:round;stroke-miterlimit:10;stroke-opacity:1;stroke-dasharray:none"
       d="m 360.48,341.64 7.2,-7.2 -7.2,-7.2 -7.2,7.2 7.2,7.2 z" /><path
       d="m 383.4,344.52 7.2,-7.2 -7.2,-7.2 -7.2,7.2 7.2,7.2 z"
       style="fill:none;stroke:#007800;stroke-width:2;stroke-linecap:butt;stroke-linejoin:round;stroke-miterlimit:10;stroke-opacity:1;stroke-dasharray:none"
       id="path7524"
       inkscape:connector-curvature="0" /><path
       inkscape:connector-curvature="0"
       id="path7526"
       style="fill:none;stroke:#007800;stroke-width:2;stroke-linecap:butt;stroke-linejoin:round;stroke-miterlimit:10;stroke-opacity:1;stroke-dasharray:none"
       d="m 406.32,363.48 7.2,-7.2 -7.2,-7.2 -7.2,7.2 7.2,7.2 z" /><path
       d="m 429.24,397.56 7.2,-7.2 -7.2,-7.2 -7.2,7.2 7.2,7.2 z"
       style="fill:none;stroke:#007800;stroke-width:2;stroke-linecap:butt;stroke-linejoin:round;stroke-miterlimit:10;stroke-opacity:1;stroke-dasharray:none"
       id="path7528"
       inkscape:connector-curvature="0" /><path
       inkscape:connector-curvature="0"
       id="path7530"
       style="fill:none;stroke:#007800;stroke-width:2;stroke-linecap:butt;stroke-linejoin:round;stroke-miterlimit:10;stroke-opacity:1;stroke-dasharray:none"
       d="m 452.16,432.6 7.2,-7.2 -7.2,-7.2 -7.2,7.2 7.2,7.2 z" /><path
       d="m 475.08,432.12 7.2,-7.2 -7.2,-7.2 -7.2,7.2 7.2,7.2 z"
       style="fill:none;stroke:#007800;stroke-width:2;stroke-linecap:butt;stroke-linejoin:round;stroke-miterlimit:10;stroke-opacity:1;stroke-dasharray:none"
       id="path7532"
       inkscape:connector-curvature="0" /><path
       inkscape:connector-curvature="0"
       id="path7534"
       style="fill:none;stroke:#007800;stroke-width:2;stroke-linecap:butt;stroke-linejoin:round;stroke-miterlimit:10;stroke-opacity:1;stroke-dasharray:none"
       d="m 498,452.28 7.2,-7.2 -7.2,-7.2 -7.2,7.2 7.2,7.2 z" /><path
       d="m 520.92,487.08 7.2,-7.2 -7.2,-7.2 -7.2,7.2 7.2,7.2 z"
       style="fill:none;stroke:#007800;stroke-width:2;stroke-linecap:butt;stroke-linejoin:round;stroke-miterlimit:10;stroke-opacity:1;stroke-dasharray:none"
       id="path7536"
       inkscape:connector-curvature="0" /><path
       inkscape:connector-curvature="0"
       id="path7538"
       style="fill:none;stroke:#007800;stroke-width:2;stroke-linecap:butt;stroke-linejoin:round;stroke-miterlimit:10;stroke-opacity:1;stroke-dasharray:none"
       d="m 543.84,444.24 7.2,-7.2 -7.2,-7.2 -7.2,7.2 7.2,7.2 z" /><path
       d="m 566.76,413.4 7.2,-7.2 -7.2,-7.2 -7.2,7.2 7.2,7.2 z"
       style="fill:none;stroke:#007800;stroke-width:2;stroke-linecap:butt;stroke-linejoin:round;stroke-miterlimit:10;stroke-opacity:1;stroke-dasharray:none"
       id="path7540"
       inkscape:connector-curvature="0" /><path
       inkscape:connector-curvature="0"
       id="path7542"
       style="fill:none;stroke:#007800;stroke-width:2;stroke-linecap:butt;stroke-linejoin:round;stroke-miterlimit:10;stroke-opacity:1;stroke-dasharray:none"
       d="m 589.68,381.96 7.2,-7.2 -7.2,-7.2 -7.2,7.2 7.2,7.2 z" /><path
       d="m 612.6,337.44 7.2,-7.2 -7.2,-7.2 -7.2,7.2 7.2,7.2 z"
       style="fill:none;stroke:#007800;stroke-width:2;stroke-linecap:butt;stroke-linejoin:round;stroke-miterlimit:10;stroke-opacity:1;stroke-dasharray:none"
       id="path7544"
       inkscape:connector-curvature="0" /><path
       inkscape:connector-curvature="0"
       id="path7546"
       style="fill:none;stroke:#007800;stroke-width:2;stroke-linecap:butt;stroke-linejoin:round;stroke-miterlimit:10;stroke-opacity:1;stroke-dasharray:none"
       d="m 269.58869,238.83044 7.20001,-7.2 -7.20001,-7.2 -7.2,7.2 7.2,7.2 z" /></g><g
     style="stroke:#0000ff;stroke-width:2.4000001;stroke-miterlimit:4;stroke-opacity:1;stroke-dasharray:none"
     id="g5779"><path
       d="m 526.77,547.2 c 0,-3.2305 -2.6195,-5.85 -5.85,-5.85 -3.2305,0 -5.85,2.6195 -5.85,5.85 0,3.2318 2.6195,5.85 5.85,5.85 3.2305,0 5.85,-2.6182 5.85,-5.85"
       style="fill:none;stroke:#0000ff;stroke-width:2;stroke-linecap:butt;stroke-linejoin:round;stroke-miterlimit:4;stroke-opacity:1;stroke-dasharray:none"
       id="path414-1"
       inkscape:connector-curvature="0" /><path
       inkscape:connector-curvature="0"
       id="path5731"
       style="fill:none;stroke:#0000ff;stroke-width:2;stroke-linecap:butt;stroke-linejoin:round;stroke-miterlimit:4;stroke-opacity:1;stroke-dasharray:none"
       d="m 549.69,513.12 c 0,-3.2305 -2.6195,-5.85 -5.85,-5.85 -3.2305,0 -5.85,2.6195 -5.85,5.85 0,3.2318 2.6195,5.85 5.85,5.85 3.2305,0 5.85,-2.6182 5.85,-5.85" /><path
       d="m 572.61,486.72 c 0,-3.2305 -2.6195,-5.85 -5.85,-5.85 -3.2305,0 -5.85,2.6195 -5.85,5.85 0,3.2318 2.6195,5.85 5.85,5.85 3.2305,0 5.85,-2.6182 5.85,-5.85"
       style="fill:none;stroke:#0000ff;stroke-width:2;stroke-linecap:butt;stroke-linejoin:round;stroke-miterlimit:4;stroke-opacity:1;stroke-dasharray:none"
       id="path5733"
       inkscape:connector-curvature="0" /><path
       inkscape:connector-curvature="0"
       id="path5735"
       style="fill:none;stroke:#0000ff;stroke-width:2;stroke-linecap:butt;stroke-linejoin:round;stroke-miterlimit:4;stroke-opacity:1;stroke-dasharray:none"
       d="m 595.53,453.36 c 0,-3.2305 -2.6195,-5.85 -5.85,-5.85 -3.2305,0 -5.85,2.6195 -5.85,5.85 0,3.2318 2.6195,5.85 5.85,5.85 3.2305,0 5.85,-2.6182 5.85,-5.85" /><path
       d="m 618.45,435 c 0,-3.2305 -2.6195,-5.85 -5.85,-5.85 -3.2305,0 -5.85,2.6195 -5.85,5.85 0,3.2318 2.6195,5.85 5.85,5.85 3.2305,0 5.85,-2.6182 5.85,-5.85"
       style="fill:none;stroke:#0000ff;stroke-width:2;stroke-linecap:butt;stroke-linejoin:round;stroke-miterlimit:4;stroke-opacity:1;stroke-dasharray:none"
       id="path5737"
       inkscape:connector-curvature="0" /><path
       inkscape:connector-curvature="0"
       id="path5739"
       style="fill:none;stroke:#0000ff;stroke-width:2;stroke-linecap:butt;stroke-linejoin:round;stroke-miterlimit:4;stroke-opacity:1;stroke-dasharray:none"
       d="m 503.85,494.64 c 0,-3.2305 -2.6195,-5.85 -5.85,-5.85 -3.2305,0 -5.85,2.6195 -5.85,5.85 0,3.2318 2.6195,5.85 5.85,5.85 3.2305,0 5.85,-2.6182 5.85,-5.85" /><path
       d="m 480.93,466.32 c 0,-3.2305 -2.6195,-5.85 -5.85,-5.85 -3.2305,0 -5.85,2.6195 -5.85,5.85 0,3.2318 2.6195,5.85 5.85,5.85 3.2305,0 5.85,-2.6182 5.85,-5.85"
       style="fill:none;stroke:#0000ff;stroke-width:2;stroke-linecap:butt;stroke-linejoin:round;stroke-miterlimit:4;stroke-opacity:1;stroke-dasharray:none"
       id="path5741"
       inkscape:connector-curvature="0" /><path
       inkscape:connector-curvature="0"
       id="path5743"
       style="fill:none;stroke:#0000ff;stroke-width:2;stroke-linecap:butt;stroke-linejoin:round;stroke-miterlimit:4;stroke-opacity:1;stroke-dasharray:none"
       d="m 458.01,443.76 c 0,-3.2305 -2.6195,-5.85 -5.85,-5.85 -3.2305,0 -5.85,2.6195 -5.85,5.85 0,3.2318 2.6195,5.85 5.85,5.85 3.2305,0 5.85,-2.6182 5.85,-5.85" /><path
       d="m 435.09,434.04 c 0,-3.2305 -2.6195,-5.85 -5.85,-5.85 -3.2305,0 -5.85,2.6195 -5.85,5.85 0,3.2318 2.6195,5.85 5.85,5.85 3.2305,0 5.85,-2.6182 5.85,-5.85"
       style="fill:none;stroke:#0000ff;stroke-width:2;stroke-linecap:butt;stroke-linejoin:round;stroke-miterlimit:4;stroke-opacity:1;stroke-dasharray:none"
       id="path5745"
       inkscape:connector-curvature="0" /><path
       inkscape:connector-curvature="0"
       id="path5747"
       style="fill:none;stroke:#0000ff;stroke-width:2;stroke-linecap:butt;stroke-linejoin:round;stroke-miterlimit:4;stroke-opacity:1;stroke-dasharray:none"
       d="m 412.17,400.68 c 0,-3.2305 -2.6195,-5.85 -5.85,-5.85 -3.2305,0 -5.85,2.6195 -5.85,5.85 0,3.2318 2.6195,5.85 5.85,5.85 3.2305,0 5.85,-2.6182 5.85,-5.85" /><path
       d="m 366.33,355.08 c 0,-3.2305 -2.6195,-5.85 -5.85,-5.85 -3.2305,0 -5.85,2.6195 -5.85,5.85 0,3.2318 2.6195,5.85 5.85,5.85 3.2305,0 5.85,-2.6182 5.85,-5.85"
       style="fill:none;stroke:#0000ff;stroke-width:2;stroke-linecap:butt;stroke-linejoin:round;stroke-miterlimit:4;stroke-opacity:1;stroke-dasharray:none"
       id="path5749"
       inkscape:connector-curvature="0" /><path
       inkscape:connector-curvature="0"
       id="path5751"
       style="fill:none;stroke:#0000ff;stroke-width:2;stroke-linecap:butt;stroke-linejoin:round;stroke-miterlimit:4;stroke-opacity:1;stroke-dasharray:none"
       d="m 389.25,378.6 c 0,-3.2305 -2.6195,-5.85 -5.85,-5.85 -3.2305,0 -5.85,2.6195 -5.85,5.85 0,3.2318 2.6195,5.85 5.85,5.85 3.2305,0 5.85,-2.6182 5.85,-5.85" /><path
       d="m 343.41,348.6 c 0,-3.2305 -2.6195,-5.85 -5.85,-5.85 -3.2305,0 -5.85,2.6195 -5.85,5.85 0,3.2318 2.6195,5.85 5.85,5.85 3.2305,0 5.85,-2.6182 5.85,-5.85"
       style="fill:none;stroke:#0000ff;stroke-width:2;stroke-linecap:butt;stroke-linejoin:round;stroke-miterlimit:4;stroke-opacity:1;stroke-dasharray:none"
       id="path5753"
       inkscape:connector-curvature="0" /><path
       inkscape:connector-curvature="0"
       id="path5755"
       style="fill:none;stroke:#0000ff;stroke-width:2;stroke-linecap:butt;stroke-linejoin:round;stroke-miterlimit:4;stroke-opacity:1;stroke-dasharray:none"
       d="m 320.49,328.92 c 0,-3.2305 -2.6195,-5.85 -5.85,-5.85 -3.2305,0 -5.85,2.6195 -5.85,5.85 0,3.2318 2.6195,5.85 5.85,5.85 3.2305,0 5.85,-2.6182 5.85,-5.85" /><path
       d="m 297.57,321.84 c 0,-3.2305 -2.6195,-5.85 -5.85,-5.85 -3.2305,0 -5.85,2.6195 -5.85,5.85 0,3.2318 2.6195,5.85 5.85,5.85 3.2305,0 5.85,-2.6182 5.85,-5.85"
       style="fill:none;stroke:#0000ff;stroke-width:2;stroke-linecap:butt;stroke-linejoin:round;stroke-miterlimit:4;stroke-opacity:1;stroke-dasharray:none"
       id="path5757"
       inkscape:connector-curvature="0" /><path
       inkscape:connector-curvature="0"
       id="path5759"
       style="fill:none;stroke:#0000ff;stroke-width:2;stroke-linecap:butt;stroke-linejoin:round;stroke-miterlimit:4;stroke-opacity:1;stroke-dasharray:none"
       d="m 274.65,303 c 0,-3.2305 -2.6195,-5.85 -5.85,-5.85 -3.2305,0 -5.85,2.6195 -5.85,5.85 0,3.2318 2.6195,5.85 5.85,5.85 3.2305,0 5.85,-2.6182 5.85,-5.85" /><path
       d="m 251.61,289.56 c 0,-3.2305 -2.6195,-5.85 -5.85,-5.85 -3.2305,0 -5.85,2.6195 -5.85,5.85 0,3.2318 2.6195,5.85 5.85,5.85 3.2305,0 5.85,-2.6182 5.85,-5.85"
       style="fill:none;stroke:#0000ff;stroke-width:2;stroke-linecap:butt;stroke-linejoin:round;stroke-miterlimit:4;stroke-opacity:1;stroke-dasharray:none"
       id="path5761"
       inkscape:connector-curvature="0" /><path
       inkscape:connector-curvature="0"
       id="path5763"
       style="fill:none;stroke:#0000ff;stroke-width:2;stroke-linecap:butt;stroke-linejoin:round;stroke-miterlimit:4;stroke-opacity:1;stroke-dasharray:none"
       d="m 228.69,274.08 c 0,-3.2305 -2.6195,-5.85 -5.85,-5.85 -3.2305,0 -5.85,2.6195 -5.85,5.85 0,3.2318 2.6195,5.85 5.85,5.85 3.2305,0 5.85,-2.6182 5.85,-5.85" /><path
       d="m 205.77,265.92 c 0,-3.2305 -2.6195,-5.85 -5.85,-5.85 -3.2305,0 -5.85,2.6195 -5.85,5.85 0,3.2318 2.6195,5.85 5.85,5.85 3.2305,0 5.85,-2.6182 5.85,-5.85"
       style="fill:none;stroke:#0000ff;stroke-width:2;stroke-linecap:butt;stroke-linejoin:round;stroke-miterlimit:4;stroke-opacity:1;stroke-dasharray:none"
       id="path5765"
       inkscape:connector-curvature="0" /><path
       inkscape:connector-curvature="0"
       id="path5767"
       style="fill:none;stroke:#0000ff;stroke-width:2;stroke-linecap:butt;stroke-linejoin:round;stroke-miterlimit:4;stroke-opacity:1;stroke-dasharray:none"
       d="m 182.85,260.88 c 0,-3.2305 -2.6195,-5.85 -5.85,-5.85 -3.2305,0 -5.85,2.6195 -5.85,5.85 0,3.2318 2.6195,5.85 5.85,5.85 3.2305,0 5.85,-2.6182 5.85,-5.85" /><path
       d="m 159.93,246.84 c 0,-3.2305 -2.6195,-5.85 -5.85,-5.85 -3.2305,0 -5.85,2.6195 -5.85,5.85 0,3.2318 2.6195,5.85 5.85,5.85 3.2305,0 5.85,-2.6182 5.85,-5.85"
       style="fill:none;stroke:#0000ff;stroke-width:2;stroke-linecap:butt;stroke-linejoin:round;stroke-miterlimit:4;stroke-opacity:1;stroke-dasharray:none"
       id="path5769"
       inkscape:connector-curvature="0" /><path
       inkscape:connector-curvature="0"
       id="path5771"
       style="fill:none;stroke:#0000ff;stroke-width:2;stroke-linecap:butt;stroke-linejoin:round;stroke-miterlimit:4;stroke-opacity:1;stroke-dasharray:none"
       d="m 137.01,238.2 c 0,-3.2305 -2.6195,-5.85 -5.85,-5.85 -3.2305,0 -5.85,2.6195 -5.85,5.85 0,3.2318 2.6195,5.85 5.85,5.85 3.2305,0 5.85,-2.6182 5.85,-5.85" /><path
       d="m 114.09,230.28 c 0,-3.2305 -2.6195,-5.85 -5.85,-5.85 -3.2305,0 -5.85,2.6195 -5.85,5.85 0,3.2318 2.6195,5.85 5.85,5.85 3.2305,0 5.85,-2.6182 5.85,-5.85"
       style="fill:none;stroke:#0000ff;stroke-width:2;stroke-linecap:butt;stroke-linejoin:round;stroke-miterlimit:4;stroke-opacity:1;stroke-dasharray:none"
       id="path5773"
       inkscape:connector-curvature="0" /><path
       inkscape:connector-curvature="0"
       id="path5775"
       style="fill:none;stroke:#0000ff;stroke-width:2;stroke-linecap:butt;stroke-linejoin:round;stroke-miterlimit:4;stroke-opacity:1;stroke-dasharray:none"
       d="m 91.17,223.08 c 0,-3.2305 -2.6195,-5.85 -5.85,-5.85 -3.2305,0 -5.85,2.6195 -5.85,5.85 0,3.2318 2.6195,5.85 5.85,5.85 3.2305,0 5.85,-2.6182 5.85,-5.85" /><path
       d="m 68.25,213.36 c 0,-3.2305 -2.6195,-5.85 -5.85,-5.85 -3.2305,0 -5.85,2.6195 -5.85,5.85 0,3.2318 2.6195,5.85 5.85,5.85 3.2305,0 5.85,-2.6182 5.85,-5.85"
       style="fill:none;stroke:#0000ff;stroke-width:2;stroke-linecap:butt;stroke-linejoin:round;stroke-miterlimit:4;stroke-opacity:1;stroke-dasharray:none"
       id="path5777"
       inkscape:connector-curvature="0" /><path
       inkscape:connector-curvature="0"
       id="path5806"
       style="fill:none;stroke:#0000ff;stroke-width:2;stroke-linecap:butt;stroke-linejoin:round;stroke-miterlimit:4;stroke-opacity:1;stroke-dasharray:none"
       d="m 275.4387,256.52024 c 0,-3.2305 -2.6195,-5.85 -5.85,-5.85 -3.2305,0 -5.85,2.6195 -5.85,5.85 0,3.2318 2.6195,5.85 5.85,5.85 3.2305,0 5.85,-2.6182 5.85,-5.85" /></g><g
     transform="translate(0,1.6)"
     id="g7602"><path
       inkscape:connector-curvature="0"
       id="path928"
       style="fill:none;stroke:#ff0000;stroke-width:2;stroke-linecap:butt;stroke-linejoin:miter;stroke-miterlimit:10;stroke-opacity:1;stroke-dasharray:none"
       d="m 55.575,487.77458 13.65,0 -6.825,11.81084 -6.825,-11.81084 z" /><path
       d="m 78.495,502.53458 13.65,0 -6.825,11.81084 -6.825,-11.81084 z"
       style="fill:none;stroke:#ff0000;stroke-width:2;stroke-linecap:butt;stroke-linejoin:miter;stroke-miterlimit:10;stroke-opacity:1;stroke-dasharray:none"
       id="path7605"
       inkscape:connector-curvature="0" /><path
       inkscape:connector-curvature="0"
       id="path7607"
       style="fill:none;stroke:#ff0000;stroke-width:2;stroke-linecap:butt;stroke-linejoin:miter;stroke-miterlimit:10;stroke-opacity:1;stroke-dasharray:none"
       d="m 101.415,479.37458 13.65,0 -6.825,11.81084 -6.825,-11.81084 z" /><path
       d="m 124.335,461.73458 13.65,0 -6.825,11.81084 -6.825,-11.81084 z"
       style="fill:none;stroke:#ff0000;stroke-width:2;stroke-linecap:butt;stroke-linejoin:miter;stroke-miterlimit:10;stroke-opacity:1;stroke-dasharray:none"
       id="path7609"
       inkscape:connector-curvature="0" /><path
       inkscape:connector-curvature="0"
       id="path7611"
       style="fill:none;stroke:#ff0000;stroke-width:2;stroke-linecap:butt;stroke-linejoin:miter;stroke-miterlimit:10;stroke-opacity:1;stroke-dasharray:none"
       d="m 147.255,463.41458 13.65,0 -6.825,11.81084 -6.825,-11.81084 z" /><path
       d="m 170.175,464.61458 13.65,0 -6.825,11.81084 -6.825,-11.81084 z"
       style="fill:none;stroke:#ff0000;stroke-width:2;stroke-linecap:butt;stroke-linejoin:miter;stroke-miterlimit:10;stroke-opacity:1;stroke-dasharray:none"
       id="path7613"
       inkscape:connector-curvature="0" /><path
       inkscape:connector-curvature="0"
       id="path7615"
       style="fill:none;stroke:#ff0000;stroke-width:2;stroke-linecap:butt;stroke-linejoin:miter;stroke-miterlimit:10;stroke-opacity:1;stroke-dasharray:none"
       d="m 193.095,462.57458 13.65,0 -6.825,11.81084 -6.825,-11.81084 z" /><path
       d="m 216.015,459.57458 13.65,0 -6.825,11.81084 -6.825,-11.81084 z"
       style="fill:none;stroke:#ff0000;stroke-width:2;stroke-linecap:butt;stroke-linejoin:miter;stroke-miterlimit:10;stroke-opacity:1;stroke-dasharray:none"
       id="path7617"
       inkscape:connector-curvature="0" /><path
       inkscape:connector-curvature="0"
       id="path7619"
       style="fill:none;stroke:#ff0000;stroke-width:2;stroke-linecap:butt;stroke-linejoin:miter;stroke-miterlimit:10;stroke-opacity:1;stroke-dasharray:none"
       d="m 238.935,431.37458 13.65,0 -6.825,11.81084 -6.825,-11.81084 z" /><path
       d="m 261.975,434.25458 13.65,0 -6.825,11.81084 -6.825,-11.81084 z"
       style="fill:none;stroke:#ff0000;stroke-width:2;stroke-linecap:butt;stroke-linejoin:miter;stroke-miterlimit:10;stroke-opacity:1;stroke-dasharray:none"
       id="path7621"
       inkscape:connector-curvature="0" /><path
       inkscape:connector-curvature="0"
       id="path7623"
       style="fill:none;stroke:#ff0000;stroke-width:2;stroke-linecap:butt;stroke-linejoin:miter;stroke-miterlimit:10;stroke-opacity:1;stroke-dasharray:none"
       d="m 284.895,443.61458 13.65,0 -6.825,11.81084 -6.825,-11.81084 z" /><path
       d="m 307.815,430.41458 13.65,0 -6.825,11.81084 -6.825,-11.81084 z"
       style="fill:none;stroke:#ff0000;stroke-width:2;stroke-linecap:butt;stroke-linejoin:miter;stroke-miterlimit:10;stroke-opacity:1;stroke-dasharray:none"
       id="path7625"
       inkscape:connector-curvature="0" /><path
       inkscape:connector-curvature="0"
       id="path7627"
       style="fill:none;stroke:#ff0000;stroke-width:2;stroke-linecap:butt;stroke-linejoin:miter;stroke-miterlimit:10;stroke-opacity:1;stroke-dasharray:none"
       d="m 330.735,435.93458 13.65,0 -6.825,11.81084 -6.825,-11.81084 z" /><path
       d="m 353.655,414.21458 13.65,0 -6.825,11.81084 -6.825,-11.81084 z"
       style="fill:none;stroke:#ff0000;stroke-width:2;stroke-linecap:butt;stroke-linejoin:miter;stroke-miterlimit:10;stroke-opacity:1;stroke-dasharray:none"
       id="path7629"
       inkscape:connector-curvature="0" /><path
       inkscape:connector-curvature="0"
       id="path7631"
       style="fill:none;stroke:#ff0000;stroke-width:2;stroke-linecap:butt;stroke-linejoin:miter;stroke-miterlimit:10;stroke-opacity:1;stroke-dasharray:none"
       d="m 376.575,421.41458 13.65,0 -6.825,11.81084 -6.825,-11.81084 z" /><path
       d="m 399.495,402.21458 13.65,0 -6.825,11.81084 -6.825,-11.81084 z"
       style="fill:none;stroke:#ff0000;stroke-width:2;stroke-linecap:butt;stroke-linejoin:miter;stroke-miterlimit:10;stroke-opacity:1;stroke-dasharray:none"
       id="path7633"
       inkscape:connector-curvature="0" /><path
       inkscape:connector-curvature="0"
       id="path7635"
       style="fill:none;stroke:#ff0000;stroke-width:2;stroke-linecap:butt;stroke-linejoin:miter;stroke-miterlimit:10;stroke-opacity:1;stroke-dasharray:none"
       d="m 422.415,361.29458 13.65,0 -6.825,11.81084 -6.825,-11.81084 z" /><path
       d="m 445.335,337.29458 13.65,0 -6.825,11.81084 -6.825,-11.81084 z"
       style="fill:none;stroke:#ff0000;stroke-width:2;stroke-linecap:butt;stroke-linejoin:miter;stroke-miterlimit:10;stroke-opacity:1;stroke-dasharray:none"
       id="path7637"
       inkscape:connector-curvature="0" /><path
       inkscape:connector-curvature="0"
       id="path7639"
       style="fill:none;stroke:#ff0000;stroke-width:2;stroke-linecap:butt;stroke-linejoin:miter;stroke-miterlimit:10;stroke-opacity:1;stroke-dasharray:none"
       d="m 468.255,339.81458 13.65,0 -6.825,11.81084 -6.825,-11.81084 z" /><path
       d="m 491.175,288.93458 13.65,0 -6.825,11.81084 -6.825,-11.81084 z"
       style="fill:none;stroke:#ff0000;stroke-width:2;stroke-linecap:butt;stroke-linejoin:miter;stroke-miterlimit:10;stroke-opacity:1;stroke-dasharray:none"
       id="path7641"
       inkscape:connector-curvature="0" /><path
       inkscape:connector-curvature="0"
       id="path7643"
       style="fill:none;stroke:#ff0000;stroke-width:2;stroke-linecap:butt;stroke-linejoin:miter;stroke-miterlimit:10;stroke-opacity:1;stroke-dasharray:none"
       d="m 514.095,278.13458 13.65,0 -6.825,11.81084 -6.825,-11.81084 z" /><path
       d="m 537.015,237.21458 13.65,0 -6.825,11.81084 -6.825,-11.81084 z"
       style="fill:none;stroke:#ff0000;stroke-width:2;stroke-linecap:butt;stroke-linejoin:miter;stroke-miterlimit:10;stroke-opacity:1;stroke-dasharray:none"
       id="path7645"
       inkscape:connector-curvature="0" /><path
       inkscape:connector-curvature="0"
       id="path7647"
       style="fill:none;stroke:#ff0000;stroke-width:2;stroke-linecap:butt;stroke-linejoin:miter;stroke-miterlimit:10;stroke-opacity:1;stroke-dasharray:none"
       d="m 559.935,250.77458 13.65,0 -6.825,11.81084 -6.825,-11.81084 z" /><path
       d="m 582.855,249.93458 13.65,0 -6.825,11.81084 -6.825,-11.81084 z"
       style="fill:none;stroke:#ff0000;stroke-width:2;stroke-linecap:butt;stroke-linejoin:miter;stroke-miterlimit:10;stroke-opacity:1;stroke-dasharray:none"
       id="path7649"
       inkscape:connector-curvature="0" /><path
       inkscape:connector-curvature="0"
       id="path7651"
       style="fill:none;stroke:#ff0000;stroke-width:2;stroke-linecap:butt;stroke-linejoin:miter;stroke-miterlimit:10;stroke-opacity:1;stroke-dasharray:none"
       d="m 605.775,206.61458 13.65,0 -6.825,11.81084 -6.825,-11.81084 z" /><path
       d="m 130.50945,542.3791 13.65,0 -6.825,11.81084 -6.825,-11.81084 z"
       style="fill:none;stroke:#ff0000;stroke-width:2;stroke-linecap:butt;stroke-linejoin:miter;stroke-miterlimit:10;stroke-opacity:1;stroke-dasharray:none"
       id="path7653"
       inkscape:connector-curvature="0" /></g></g></g></svg>