<?xml version="1.0" encoding="UTF-8" standalone="no"?>
<!-- Created with Inkscape (http://www.inkscape.org/) -->

<svg
   xmlns:dc="http://purl.org/dc/elements/1.1/"
   xmlns:cc="http://creativecommons.org/ns#"
   xmlns:rdf="http://www.w3.org/1999/02/22-rdf-syntax-ns#"
   xmlns:svg="http://www.w3.org/2000/svg"
   xmlns="http://www.w3.org/2000/svg"
   xmlns:sodipodi="http://sodipodi.sourceforge.net/DTD/sodipodi-0.dtd"
   xmlns:inkscape="http://www.inkscape.org/namespaces/inkscape"
   id="svg2"
   version="1.1"
   inkscape:version="0.48.2 r9819"
   width="292.5"
   height="171"
   xml:space="preserve"
   sodipodi:docname="machining-diagram.svg"><metadata
     id="metadata8"><rdf:RDF><cc:Work
         rdf:about=""><dc:format>image/svg+xml</dc:format><dc:type
           rdf:resource="http://purl.org/dc/dcmitype/StillImage" /><dc:title /></cc:Work></rdf:RDF></metadata><defs
     id="defs6"><marker
       inkscape:stockid="Arrow2Send"
       orient="auto"
       refY="0"
       refX="0"
       id="Arrow2Send"
       style="overflow:visible"><path
         id="path4044"
         style="font-size:12px;fill-rule:evenodd;stroke-width:0.625;stroke-linejoin:round"
         d="M 8.7185878,4.0337352 -2.2072895,0.01601326 8.7185884,-4.0017078 c -1.7454984,2.3720609 -1.7354408,5.6174519 -6e-7,8.035443 z"
         transform="matrix(-0.3,0,0,-0.3,0.69,0)"
         inkscape:connector-curvature="0" /></marker><marker
       inkscape:stockid="TriangleOutM"
       orient="auto"
       refY="0"
       refX="0"
       id="TriangleOutM"
       style="overflow:visible"><path
         id="path4157"
         d="m 5.77,0 -8.65,5 0,-10 8.65,5 z"
         style="fill-rule:evenodd;stroke:#000000;stroke-width:1pt;marker-start:none"
         transform="scale(0.4,0.4)"
         inkscape:connector-curvature="0" /></marker><marker
       inkscape:stockid="TriangleOutL"
       orient="auto"
       refY="0"
       refX="0"
       id="TriangleOutL"
       style="overflow:visible"><path
         id="path4154"
         d="m 5.77,0 -8.65,5 0,-10 8.65,5 z"
         style="fill-rule:evenodd;stroke:#000000;stroke-width:1pt;marker-start:none"
         transform="scale(0.8,0.8)"
         inkscape:connector-curvature="0" /></marker><marker
       inkscape:stockid="DotM"
       orient="auto"
       refY="0"
       refX="0"
       id="DotM"
       style="overflow:visible"><path
         id="path4076"
         d="m -2.5,-1 c 0,2.76 -2.24,5 -5,5 -2.76,0 -5,-2.24 -5,-5 0,-2.76 2.24,-5 5,-5 2.76,0 5,2.24 5,5 z"
         style="fill-rule:evenodd;stroke:#000000;stroke-width:1pt;marker-start:none;marker-end:none"
         transform="matrix(0.4,0,0,0.4,2.96,0.4)"
         inkscape:connector-curvature="0" /></marker><marker
       inkscape:stockid="Arrow1Send"
       orient="auto"
       refY="0"
       refX="0"
       id="Arrow1Send"
       style="overflow:visible"><path
         id="path4026"
         d="M 0,0 5,-5 -12.5,0 5,5 0,0 z"
         style="fill-rule:evenodd;stroke:#000000;stroke-width:1pt;marker-start:none"
         transform="matrix(-0.2,0,0,-0.2,-1.2,0)"
         inkscape:connector-curvature="0" /></marker><marker
       inkscape:stockid="Arrow2Lend"
       orient="auto"
       refY="0"
       refX="0"
       id="Arrow2Lend"
       style="overflow:visible"><path
         id="path4032"
         style="font-size:12px;fill-rule:evenodd;stroke-width:0.625;stroke-linejoin:round"
         d="M 8.7185878,4.0337352 -2.2072895,0.01601326 8.7185884,-4.0017078 c -1.7454984,2.3720609 -1.7354408,5.6174519 -6e-7,8.035443 z"
         transform="matrix(-1.1,0,0,-1.1,-1.1,0)"
         inkscape:connector-curvature="0" /></marker><marker
       inkscape:stockid="Arrow1Lend"
       orient="auto"
       refY="0"
       refX="0"
       id="Arrow1Lend"
       style="overflow:visible"><path
         id="path4014"
         d="M 0,0 5,-5 -12.5,0 5,5 0,0 z"
         style="fill-rule:evenodd;stroke:#000000;stroke-width:1pt;marker-start:none"
         transform="matrix(-0.8,0,0,-0.8,-10,0)"
         inkscape:connector-curvature="0" /></marker><marker
       inkscape:stockid="Arrow1Mend"
       orient="auto"
       refY="0"
       refX="0"
       id="Arrow1Mend"
       style="overflow:visible"><path
         id="path4020"
         d="M 0,0 5,-5 -12.5,0 5,5 0,0 z"
         style="fill-rule:evenodd;stroke:#000000;stroke-width:1pt;marker-start:none"
         transform="matrix(-0.4,0,0,-0.4,-4,0)"
         inkscape:connector-curvature="0" /></marker><marker
       inkscape:stockid="Arrow2Mend"
       orient="auto"
       refY="0"
       refX="0"
       id="Arrow2Mend"
       style="overflow:visible"><path
         id="path4038"
         style="font-size:12px;fill-rule:evenodd;stroke-width:0.625;stroke-linejoin:round"
         d="M 8.7185878,4.0337352 -2.2072895,0.01601326 8.7185884,-4.0017078 c -1.7454984,2.3720609 -1.7354408,5.6174519 -6e-7,8.035443 z"
         transform="scale(-0.6,-0.6)"
         inkscape:connector-curvature="0" /></marker><marker
       inkscape:stockid="TriangleInL"
       orient="auto"
       refY="0"
       refX="0"
       id="TriangleInL"
       style="overflow:visible"><path
         id="path4145"
         d="m 5.77,0 -8.65,5 0,-10 8.65,5 z"
         style="fill-rule:evenodd;stroke:#000000;stroke-width:1pt;marker-start:none"
         transform="scale(-0.8,-0.8)"
         inkscape:connector-curvature="0" /></marker><marker
       inkscape:stockid="Arrow2Sstart"
       orient="auto"
       refY="0"
       refX="0"
       id="Arrow2Sstart"
       style="overflow:visible"><path
         id="path4041"
         style="font-size:12px;fill-rule:evenodd;stroke-width:0.625;stroke-linejoin:round"
         d="M 8.7185878,4.0337352 -2.2072895,0.01601326 8.7185884,-4.0017078 c -1.7454984,2.3720609 -1.7354408,5.6174519 -6e-7,8.035443 z"
         transform="matrix(0.3,0,0,0.3,-0.69,0)"
         inkscape:connector-curvature="0" /></marker><marker
       inkscape:stockid="Arrow2Mstart"
       orient="auto"
       refY="0"
       refX="0"
       id="Arrow2Mstart"
       style="overflow:visible"><path
         id="path4035"
         style="font-size:12px;fill-rule:evenodd;stroke-width:0.625;stroke-linejoin:round"
         d="M 8.7185878,4.0337352 -2.2072895,0.01601326 8.7185884,-4.0017078 c -1.7454984,2.3720609 -1.7354408,5.6174519 -6e-7,8.035443 z"
         transform="scale(0.6,0.6)"
         inkscape:connector-curvature="0" /></marker><marker
       inkscape:stockid="Arrow2Lstart"
       orient="auto"
       refY="0"
       refX="0"
       id="Arrow2Lstart"
       style="overflow:visible"><path
         id="path4029"
         style="font-size:12px;fill-rule:evenodd;stroke-width:0.625;stroke-linejoin:round"
         d="M 8.7185878,4.0337352 -2.2072895,0.01601326 8.7185884,-4.0017078 c -1.7454984,2.3720609 -1.7354408,5.6174519 -6e-7,8.035443 z"
         transform="matrix(1.1,0,0,1.1,1.1,0)"
         inkscape:connector-curvature="0" /></marker><marker
       inkscape:stockid="Arrow1Sstart"
       orient="auto"
       refY="0"
       refX="0"
       id="Arrow1Sstart"
       style="overflow:visible"><path
         id="path4023"
         d="M 0,0 5,-5 -12.5,0 5,5 0,0 z"
         style="fill-rule:evenodd;stroke:#000000;stroke-width:1pt;marker-start:none"
         transform="matrix(0.2,0,0,0.2,1.2,0)"
         inkscape:connector-curvature="0" /></marker><marker
       inkscape:stockid="Arrow1Mstart"
       orient="auto"
       refY="0"
       refX="0"
       id="Arrow1Mstart"
       style="overflow:visible"><path
         id="path4017"
         d="M 0,0 5,-5 -12.5,0 5,5 0,0 z"
         style="fill-rule:evenodd;stroke:#000000;stroke-width:1pt;marker-start:none"
         transform="matrix(0.4,0,0,0.4,4,0)"
         inkscape:connector-curvature="0" /></marker><marker
       inkscape:stockid="Arrow1Lstart"
       orient="auto"
       refY="0"
       refX="0"
       id="Arrow1Lstart"
       style="overflow:visible"><path
         id="path4011"
         d="M 0,0 5,-5 -12.5,0 5,5 0,0 z"
         style="fill-rule:evenodd;stroke:#000000;stroke-width:1pt;marker-start:none"
         transform="matrix(0.8,0,0,0.8,10,0)"
         inkscape:connector-curvature="0" /></marker><clipPath
       clipPathUnits="userSpaceOnUse"
       id="clipPath16"><path
         d="m 0,1.2207e-4 720,0 0,539.99999793 -720,0 L 0,1.2207e-4 z"
         clip-rule="evenodd"
         id="path18"
         inkscape:connector-curvature="0" /></clipPath><clipPath
       clipPathUnits="userSpaceOnUse"
       id="clipPath26"><path
         d="M 9.24e-7,540 720,540 720,-6.104e-6 -3.2e-8,0"
         clip-rule="evenodd"
         id="path28"
         inkscape:connector-curvature="0" /></clipPath><clipPath
       clipPathUnits="userSpaceOnUse"
       id="clipPath108"><path
         d="M -6.85e-7,540 720,540 720,1.2207e-4 -6.85e-7,1.2207e-4"
         clip-rule="evenodd"
         id="path110"
         inkscape:connector-curvature="0" /></clipPath><clipPath
       clipPathUnits="userSpaceOnUse"
       id="clipPath126"><path
         d="m 191.54,361.3 29.28,0 0,12.96 -29.28,0 0,-12.96 z"
         clip-rule="evenodd"
         id="path128"
         inkscape:connector-curvature="0" /></clipPath><clipPath
       clipPathUnits="userSpaceOnUse"
       id="clipPath138"><path
         d="m 457.15,347.59 29.28,0 0,12.96 -29.28,0 0,-12.96 z"
         clip-rule="evenodd"
         id="path140"
         inkscape:connector-curvature="0" /></clipPath><clipPath
       clipPathUnits="userSpaceOnUse"
       id="clipPath152"><path
         d="m 471.67,375.12 29.28,0 0,12.96 -29.28,0 0,-12.96 z"
         clip-rule="evenodd"
         id="path154"
         inkscape:connector-curvature="0" /></clipPath><clipPath
       clipPathUnits="userSpaceOnUse"
       id="clipPath166"><path
         d="m 224.88,350.47 40.824,0 0,12.96 -40.824,0 0,-12.96 z"
         clip-rule="evenodd"
         id="path168"
         inkscape:connector-curvature="0" /></clipPath><clipPath
       clipPathUnits="userSpaceOnUse"
       id="clipPath174"><path
         d="M -3.396e-6,540 720,540 720,1.2207e-4 -5.914e-6,6.104e-6"
         clip-rule="evenodd"
         id="path176"
         inkscape:connector-curvature="0" /></clipPath></defs><sodipodi:namedview
     pagecolor="#ffffff"
     bordercolor="#666666"
     borderopacity="1"
     objecttolerance="10"
     gridtolerance="10"
     guidetolerance="10"
     inkscape:pageopacity="0"
     inkscape:pageshadow="2"
     inkscape:window-width="1440"
     inkscape:window-height="765"
     id="namedview4"
     showgrid="false"
     inkscape:object-nodes="true"
     inkscape:zoom="1.3985185"
     inkscape:cx="116.03084"
     inkscape:cy="80.052304"
     inkscape:window-x="0"
     inkscape:window-y="0"
     inkscape:window-maximized="1"
     inkscape:current-layer="g10"
     inkscape:snap-global="false"
     fit-margin-top="0"
     fit-margin-left="0"
     fit-margin-right="0"
     fit-margin-bottom="0"
     units="in" /><g
     id="g10"
     inkscape:groupmode="layer"
     inkscape:label="machiningdiagram"
     transform="matrix(1.25,0,0,-1.25,-106.0325,428.37598)">



























<g
   id="g6411"
   transform="matrix(0.56921538,0,0,0.56921538,36.541736,88.698554)"><text
     id="text26922"
     transform="scale(1,-1)"
     x="145.4897"
     y="-404.39169"><tspan
       id="tspan26924"
       sodipodi:role="line"
       style="font-size:18px;font-variant:normal;font-weight:normal;writing-mode:lr-tb;fill:#000000;fill-opacity:1;fill-rule:nonzero;stroke:none;font-family:Cambria Math;-inkscape-font-specification:Cambria Math"
       x="145.4897"
       y="-404.39169">Built-up region</tspan></text>
<path
     sodipodi:nodetypes="ccccccccc"
     inkscape:connector-curvature="0"
     id="path44"
     style="fill:#ffeeaa;stroke:#000000;stroke-width:1;stroke-linecap:butt;stroke-linejoin:round;stroke-miterlimit:10;stroke-opacity:1;stroke-dasharray:none"
     d="m 85.326,206.4 0.2,120.74 129.724,0 101.25,35.37 -39.26,-120.92 105.64,85.55 109.5,0 0,-120.74 c -135.68467,0 -271.36933,0 -407.054,0 z" /><g
     style="fill:#e6e6e6"
     id="g22"><g
       style="fill:#e6e6e6"
       clip-path="url(#clipPath26)"
       id="g24"><path
         inkscape:connector-curvature="0"
         id="path30"
         style="fill:#e6e6e6;stroke:#000000;stroke-width:1;stroke-linecap:butt;stroke-linejoin:round;stroke-miterlimit:10;stroke-opacity:1;stroke-dasharray:none"
         d="m 393.02,370.12 -115.78,-128.53 53.42,164.53 62.36,-36 z" /></g></g><g
     id="g32"><path
       inkscape:connector-curvature="0"
       id="path34"
       style="fill:none;stroke:#000000;stroke-width:0.80000001;stroke-linecap:butt;stroke-linejoin:round;stroke-miterlimit:10;stroke-opacity:1;stroke-dasharray:3.2, 3.2;stroke-dashoffset:0"
       d="m 277.24,241.59 84.6,146.53" /></g><path
     d="m 277.24,241.59 -61.99,85.55"
     style="fill:none;stroke:#000000;stroke-width:1.20000005;stroke-linecap:butt;stroke-linejoin:round;stroke-miterlimit:10;stroke-opacity:1;stroke-dasharray:1.2, 1.2;stroke-dashoffset:0"
     id="path40"
     inkscape:connector-curvature="0" /><path
     inkscape:connector-curvature="0"
     id="path56"
     style="fill:none;stroke:#000000;stroke-width:1;stroke-linecap:butt;stroke-linejoin:round;stroke-miterlimit:10;stroke-opacity:1;stroke-dasharray:none;marker-start:url(#Arrow2Mstart);marker-mid:none;marker-end:url(#Arrow2Mend)"
     d="m 308.14,330.12 c 4.97,-1.74 9.79,-3.89 14.4,-6.44" /><path
     inkscape:connector-curvature="0"
     id="path58"
     style="fill:none;stroke:#000000;stroke-width:1;stroke-linecap:butt;stroke-linejoin:round;stroke-miterlimit:10;stroke-opacity:1;stroke-dasharray:none;marker-start:url(#Arrow2Mstart);marker-end:url(#Arrow2Mend)"
     d="m 325.72,321.85 c 4.49,-2.71 8.74,-5.8 12.71,-9.22" /><text
     id="text60"
     transform="matrix(1,0,0,-1,336.41,324.58)"><tspan
       id="tspan62"
       y="0"
       x="0"
       style="font-size:18px;font-variant:normal;font-weight:normal;writing-mode:lr-tb;fill:#000000;fill-opacity:1;fill-rule:nonzero;stroke:none;font-family:Cambria Math;-inkscape-font-specification:Cambria Math">𝛽</tspan></text>
<path
     inkscape:connector-curvature="0"
     id="path64"
     style="fill:none;stroke:#000000;stroke-width:1;stroke-linecap:butt;stroke-linejoin:round;stroke-miterlimit:10;stroke-opacity:1;stroke-dasharray:none;marker-start:url(#Arrow2Mstart);marker-end:url(#Arrow2Mend)"
     d="m 355.64,326.78 c 3.75,-3.44 7.26,-7.13 10.52,-11.04" /><text
     id="text66"
     transform="matrix(1,0,0,-1,365.59,323.35)"><tspan
       id="tspan68"
       y="0"
       x="0"
       style="font-size:18px;font-variant:normal;font-weight:normal;writing-mode:lr-tb;fill:#000000;fill-opacity:1;fill-rule:nonzero;stroke:none;font-family:Cambria Math;-inkscape-font-specification:Cambria Math">𝜖</tspan></text>
<path
     inkscape:connector-curvature="0"
     id="path70"
     style="fill:none;stroke:#000000;stroke-width:1.5999999;stroke-linecap:butt;stroke-linejoin:round;stroke-miterlimit:10;stroke-opacity:1;stroke-dasharray:4.8, 4.8;stroke-dashoffset:2.88000002;marker-start:url(#Arrow1Mstart)"
     d="m 386.1191,330.31653 109.17089,88.73921" /><path
     inkscape:connector-curvature="0"
     id="path72"
     style="fill:none;stroke:#000000;stroke-width:1;stroke-linecap:butt;stroke-linejoin:round;stroke-miterlimit:10;stroke-opacity:1;stroke-dasharray:none;marker-start:url(#Arrow2Mstart);marker-end:url(#Arrow2Mend)"
     d="m 411.49,349.08 c 4.44,-5.94 7.03,-13.06 7.45,-20.46" /><g
     transform="translate(0,-0.05056113)"
     id="g74"><path
       inkscape:connector-curvature="0"
       id="path76"
       style="fill:none;stroke:#000000;stroke-width:0.80000001;stroke-linecap:butt;stroke-linejoin:round;stroke-miterlimit:10;stroke-opacity:1;stroke-dasharray:6.4, 3.2;stroke-dashoffset:0"
       d="m 119.5,241.59 245.9,0" /></g><path
     inkscape:connector-curvature="0"
     id="path78"
     style="fill:none;stroke:#000000;stroke-width:1;stroke-linecap:butt;stroke-linejoin:round;stroke-miterlimit:10;stroke-opacity:1;stroke-dasharray:none;marker-start:url(#Arrow2Mstart);marker-end:url(#Arrow2Mend)"
     d="m 311.14,296.77 c 18.69,-11.48 30.3,-31.65 30.84,-53.59" /><text
     id="text80"
     transform="matrix(1,0,0,-1,346.61,258.96)"><tspan
       id="tspan82"
       y="0"
       x="0"
       style="font-size:18px;font-variant:normal;font-weight:normal;writing-mode:lr-tb;fill:#000000;fill-opacity:1;fill-rule:nonzero;stroke:none;font-family:Cambria Math;-inkscape-font-specification:Cambria Math">𝜆</tspan></text>
<text
     y="-335.06"
     x="424.5"
     id="text84"
     transform="scale(1,-1)"><tspan
       id="tspan86"
       y="-335.06"
       x="424.5"
       style="font-size:18px;font-variant:normal;font-weight:normal;writing-mode:lr-tb;fill:#000000;fill-opacity:1;fill-rule:nonzero;stroke:none;font-family:Cambria Math;-inkscape-font-specification:Cambria Math">𝜃</tspan></text>
<path
     inkscape:connector-curvature="0"
     id="path88"
     style="fill:none;stroke:#000000;stroke-width:1;stroke-linecap:butt;stroke-linejoin:round;stroke-miterlimit:10;stroke-opacity:1;stroke-dasharray:none;marker-start:url(#Arrow2Mstart);marker-end:url(#Arrow2Mend)"
     d="m 247.66,242.89 c 0.37,8.44 4.33,16.32 10.87,21.65" /><path
     inkscape:connector-curvature="0"
     id="path90"
     style="fill:none;stroke:#000000;stroke-width:1.60000002;stroke-linecap:round;stroke-linejoin:round;stroke-miterlimit:10;stroke-opacity:1;stroke-dasharray:none;marker-end:url(#Arrow2Mend)"
     d="m 242.8,289.39 -14.37702,19.88335" /><path
     inkscape:connector-curvature="0"
     id="path92"
     style="fill:none;stroke:#000000;stroke-width:1.60000002;stroke-linecap:butt;stroke-linejoin:round;stroke-miterlimit:10;stroke-opacity:1;stroke-dasharray:none;marker-end:url(#Arrow2Mend)"
     d="M 227.24998,310.84999 167.01212,267.25957" /><path
     inkscape:connector-curvature="0"
     id="path94"
     style="fill:none;stroke:#000000;stroke-width:2.40000033;stroke-linecap:butt;stroke-linejoin:round;stroke-miterlimit:10;stroke-opacity:1;stroke-dasharray:none;marker-end:url(#TriangleOutM)"
     d="M 242.79999,289.39002 164.84195,263.18151" /><path
     inkscape:connector-curvature="0"
     id="path96"
     style="fill:none;stroke:#000000;stroke-width:1.60000002;stroke-linecap:butt;stroke-linejoin:round;stroke-miterlimit:10;stroke-opacity:1;stroke-dasharray:none;marker-start:url(#Arrow2Mstart);marker-end:none"
     d="m 361.84,390.75768 0,25.94232" /><path
     inkscape:connector-curvature="0"
     id="path98"
     style="fill:none;stroke:#000000;stroke-width:2.4000001;stroke-linecap:butt;stroke-linejoin:round;stroke-miterlimit:10;stroke-opacity:1;stroke-dasharray:none;marker-end:url(#TriangleOutM)"
     d="M 446.44,416.7 368.30499,390.39634" /><path
     inkscape:connector-curvature="0"
     id="path100"
     style="fill:none;stroke:#000000;stroke-width:1.60000002;stroke-linecap:round;stroke-linejoin:round;stroke-miterlimit:10;stroke-opacity:1;stroke-dasharray:none;marker-end:url(#Arrow2Mend)"
     d="m 446.44,416.7 -81.78374,0" /><g
     id="g122"><g
       clip-path="url(#clipPath126)"
       id="g124" /></g><g
     id="g134"><g
       clip-path="url(#clipPath138)"
       id="g136" /></g><g
     id="g142" /><g
     id="g148"><g
       clip-path="url(#clipPath152)"
       id="g150" /></g><g
     id="g156" /><g
     id="g162"><g
       clip-path="url(#clipPath166)"
       id="g164" /></g><g
     id="g170"><g
       clip-path="url(#clipPath174)"
       id="g172"><path
         inkscape:connector-curvature="0"
         id="path178"
         style="fill:none;stroke:#000000;stroke-width:0.75;stroke-linecap:butt;stroke-linejoin:round;stroke-miterlimit:10;stroke-opacity:1;stroke-dasharray:none"
         d="m 221.31,323.23 c 2.56,1.86 7.99,-1.24 12.13,-6.94 l 12.29,-16.92 c 4.14,-5.69 9.57,-8.8 12.13,-6.94 -2.56,-1.86 -1.28,-7.98 2.85,-13.68 l 12.3,-16.92 c 4.13,-5.69 5.41,-11.82 2.85,-13.68" /></g></g><text
     id="text180"
     transform="matrix(1,0,0,-1,254.88,296.66)"><tspan
       id="tspan182"
       sodipodi:role="line"
       y="0"
       x="0 8.9280005 12.618 20.52"
       style="font-size:18px;font-variant:normal;font-weight:normal;writing-mode:lr-tb;fill:#000000;fill-opacity:1;fill-rule:nonzero;stroke:none;font-family:Cambria Math;-inkscape-font-specification:Cambria Math">S.P.</tspan></text>
<text
     id="text184"
     transform="matrix(1,0,0,-1,391.25,300.53)"><tspan
       id="tspan186"
       sodipodi:role="line"
       y="0"
       x="0 10.075416 17.158848 25.954559 30.965233 35.849735 40.896458 50.95385 59.857704 63.696815 71.375038 76.385712 86.38903"
       style="font-size:18.02400017px;font-variant:normal;font-weight:normal;writing-mode:lr-tb;fill:#000000;fill-opacity:1;fill-rule:nonzero;stroke:none;font-family:Cambria Math;-inkscape-font-specification:Cambria Math">Trailing side</tspan></text>
<text
     id="text188"
     transform="matrix(1,0,0,-1,86.4,338.93)"><tspan
       id="tspan190"
       sodipodi:role="line"
       y="0"
       x="0 9.7019997 18.486 27.27 37.188 42.192001 52.290001 61.181999 65.015999 72.702003 77.706001 87.695999"
       style="font-size:18px;font-variant:normal;font-weight:normal;writing-mode:lr-tb;fill:#000000;fill-opacity:1;fill-rule:nonzero;stroke:none;font-family:Cambria Math;-inkscape-font-specification:Cambria Math">Leading side</tspan></text>
<g
     id="g22196"><text
   transform="scale(1,-1)"
   id="text192"
   x="217.47102"
   y="-291.91675"><tspan
     style="font-size:18px;font-variant:normal;font-weight:normal;writing-mode:lr-tb;fill:#000000;fill-opacity:1;fill-rule:nonzero;stroke:none;font-family:Cambria Math;-inkscape-font-specification:Cambria Math"
     x="217.47102"
     y="-291.91675"
     id="tspan194">𝑓</tspan></text>


<text
   transform="scale(1,-1)"
   id="text196"
   x="223.83102"
   y="-288.19675"><tspan
     style="font-size:13.19999981px;font-variant:normal;font-weight:normal;writing-mode:lr-tb;fill:#000000;fill-opacity:1;fill-rule:nonzero;stroke:none;font-family:Cambria Math;-inkscape-font-specification:Cambria Math"
     x="223.83102"
     y="-288.19675"
     id="tspan198">𝑠</tspan></text>


</g><g
     transform="translate(-7.2808026,-6.4718248)"
     id="g22190"><text
   transform="matrix(1,0,0,-1,179.23,294.86)"
   id="text200"><tspan
     style="font-size:18px;font-variant:normal;font-weight:normal;writing-mode:lr-tb;fill:#000000;fill-opacity:1;fill-rule:nonzero;stroke:none;font-family:Cambria Math;-inkscape-font-specification:Cambria Math"
     x="0"
     y="0"
     id="tspan202">𝑓</tspan></text>


<text
   transform="matrix(1,0,0,-1,185.59,291.14)"
   id="text204"><tspan
     style="font-size:13.19999981px;font-variant:normal;font-weight:normal;writing-mode:lr-tb;fill:#000000;fill-opacity:1;fill-rule:nonzero;stroke:none;font-family:Cambria Math;-inkscape-font-specification:Cambria Math"
     x="0"
     y="0"
     id="tspan206">𝑛</tspan></text>


</g><text
     y="-259.96286"
     x="201.96814"
     id="text208"
     transform="scale(1,-1)"><tspan
       id="tspan210"
       y="-259.96286"
       x="201.96814"
       style="font-size:18.02400017px;font-variant:normal;font-weight:normal;writing-mode:lr-tb;fill:#000000;fill-opacity:1;fill-rule:nonzero;stroke:none;font-family:Cambria Math;-inkscape-font-specification:Cambria Math">𝐟</tspan></text>
<g
     id="g22208"><text
   transform="scale(1,-1)"
   id="text212"
   x="391.80695"
   y="-424.42102"><tspan
     style="font-size:18px;font-variant:normal;font-weight:normal;writing-mode:lr-tb;fill:#000000;fill-opacity:1;fill-rule:nonzero;stroke:none;font-family:Cambria Math;-inkscape-font-specification:Cambria Math"
     x="391.80695"
     y="-424.42102"
     id="tspan214">𝐹</tspan></text>


<text
   transform="scale(1,-1)"
   id="text216"
   x="399.36694"
   y="-420.70102"><tspan
     style="font-size:13.19999981px;font-variant:normal;font-weight:normal;writing-mode:lr-tb;fill:#000000;fill-opacity:1;fill-rule:nonzero;stroke:none;font-family:Cambria Math;-inkscape-font-specification:Cambria Math"
     x="399.36694"
     y="-420.70102"
     id="tspan218">𝑥</tspan></text>


</g><g
     id="g22202"><text
   transform="scale(1,-1)"
   id="text220"
   x="342.19965"
   y="-407.80856"><tspan
     style="font-size:18px;font-variant:normal;font-weight:normal;writing-mode:lr-tb;fill:#000000;fill-opacity:1;fill-rule:nonzero;stroke:none;font-family:Cambria Math;-inkscape-font-specification:Cambria Math"
     x="342.19965"
     y="-407.80856"
     id="tspan222">𝐹</tspan></text>


<text
   transform="scale(1,-1)"
   id="text224"
   x="349.75964"
   y="-404.08856"><tspan
     style="font-size:13.19999981px;font-variant:normal;font-weight:normal;writing-mode:lr-tb;fill:#000000;fill-opacity:1;fill-rule:nonzero;stroke:none;font-family:Cambria Math;-inkscape-font-specification:Cambria Math"
     x="349.75964"
     y="-404.08856"
     id="tspan226">𝑦</tspan></text>


</g><text
     y="-381.83984"
     x="391.56137"
     id="text228"
     transform="scale(1,-1)"><tspan
       id="tspan230"
       y="-381.83984"
       x="391.56137"
       style="font-size:18.02400017px;font-variant:normal;font-weight:normal;writing-mode:lr-tb;fill:#000000;fill-opacity:1;fill-rule:nonzero;stroke:none;font-family:Cambria Math;-inkscape-font-specification:Cambria Math">𝐅</tspan></text>
<text
     id="text232"
     transform="matrix(1,0,0,-1,234.26,252.07)"><tspan
       id="tspan234"
       y="0"
       x="0"
       style="font-size:18px;font-variant:normal;font-weight:normal;writing-mode:lr-tb;fill:#000000;fill-opacity:1;fill-rule:nonzero;stroke:none;font-family:Cambria Math;-inkscape-font-specification:Cambria Math">𝜙</tspan></text>
<text
     id="text236"
     transform="matrix(1,0,0,-1,316.25,336.82)"><tspan
       id="tspan238"
       y="0"
       x="0"
       style="font-size:18px;font-variant:normal;font-weight:normal;writing-mode:lr-tb;fill:#000000;fill-opacity:1;fill-rule:nonzero;stroke:none;font-family:Cambria Math;-inkscape-font-specification:Cambria Math">𝛽</tspan></text>
<path
     d="m 316.5,362.51 0,83.27"
     style="fill:none;stroke:#000000;stroke-width:0.80000001;stroke-linecap:butt;stroke-linejoin:round;stroke-miterlimit:10;stroke-opacity:1;stroke-dasharray:2.4, 2.4;stroke-dashoffset:1.35999988"
     id="path242"
     inkscape:connector-curvature="0" /><path
     inkscape:connector-curvature="0"
     id="path244"
     style="fill:none;stroke:#000000;stroke-width:1;stroke-linecap:butt;stroke-linejoin:round;stroke-miterlimit:10;stroke-opacity:1;stroke-dasharray:none;marker-start:url(#Arrow2Mstart);marker-end:url(#Arrow2Mend)"
     d="m 318.14,438.73 c 6.8,-0.14 13.54,-1.18 20.07,-3.07" /><text
     id="text246"
     transform="matrix(1,0,0,-1,299.95,434.16)"><tspan
       id="tspan248"
       y="0"
       x="0"
       style="font-size:18px;font-variant:normal;font-weight:normal;writing-mode:lr-tb;fill:#000000;fill-opacity:1;fill-rule:nonzero;stroke:none;font-family:Cambria Math;-inkscape-font-specification:Cambria Math">𝛼</tspan></text>
<path
     inkscape:connector-curvature="0"
     id="path250"
     style="fill:none;stroke:#000000;stroke-width:0.80000001;stroke-linecap:butt;stroke-linejoin:round;stroke-miterlimit:10;stroke-opacity:1;stroke-dasharray:none"
     d="m 331.41017,408.56604 10.5898,32.47395" /><path
     inkscape:connector-curvature="0"
     id="path252"
     style="fill:none;stroke:#000000;stroke-width:1;stroke-linecap:butt;stroke-linejoin:round;stroke-miterlimit:10;stroke-opacity:1;stroke-dasharray:none;marker-start:url(#Arrow2Mstart);marker-end:url(#Arrow2Mend)"
     d="m 132.11,243.57 0,81.93" /><text
     id="text254"
     transform="matrix(1,0,0,-1,120.22,274.1)"><tspan
       id="tspan256"
       y="0"
       x="0"
       style="font-size:18px;font-variant:normal;font-weight:normal;writing-mode:lr-tb;fill:#000000;fill-opacity:1;fill-rule:nonzero;stroke:none;font-family:Cambria Math;-inkscape-font-specification:Cambria Math">𝑡</tspan></text>
<g
     transform="translate(-8.0084746,-118.98305)"
     id="g26928"><path
       inkscape:connector-curvature="0"
       d="m 492.38,334.07 -28.8,0"
       style="fill:none;stroke:#000000;stroke-width:1.60000002;stroke-linecap:round;stroke-linejoin:round;stroke-miterlimit:10;stroke-opacity:1;stroke-dasharray:none;marker-end:url(#Arrow2Mend)"
       id="path114" /><path
       inkscape:connector-curvature="0"
       d="m 492.38,334.35 0,28.8"
       style="fill:none;stroke:#000000;stroke-width:1.60000002;stroke-linecap:round;stroke-linejoin:round;stroke-miterlimit:10;stroke-opacity:1;stroke-dasharray:none;marker-end:url(#Arrow2Mend)"
       id="path116" /><g
       id="g22273"
       transform="translate(-5.2583576,-2.0224452)"><text
   id="text130"
   transform="matrix(1,0,0,-1,466.51,342.91)"><tspan
     id="tspan132"
     y="0"
     x="0"
     style="font-size:18px;font-variant:normal;font-weight:normal;writing-mode:lr-tb;fill:#000000;fill-opacity:1;fill-rule:nonzero;stroke:none;font-family:Cambria Math;-inkscape-font-specification:Cambria Math">𝐱</tspan></text>


<text
   y="-344.12347"
   x="469.03806"
   transform="scale(1,-1)"
   id="text22218"><tspan
     style="font-size:18px;font-variant:normal;font-weight:normal;writing-mode:lr-tb;fill:#000000;fill-opacity:1;fill-rule:nonzero;stroke:none;font-family:Cambria Math;-inkscape-font-specification:Cambria Math"
     x="469.03806"
     y="-344.12347"
     id="tspan22220">ˆ</tspan></text>


</g><g
       id="g22279"
       transform="translate(2.0224452,-4.0448905)"><text
   id="text144"
   transform="matrix(1,0,0,-1,480.55,370.44)"><tspan
     id="tspan146"
     y="0"
     x="0"
     style="font-size:18px;font-variant:normal;font-weight:normal;writing-mode:lr-tb;fill:#000000;fill-opacity:1;fill-rule:nonzero;stroke:none;font-family:Cambria Math;-inkscape-font-specification:Cambria Math">𝐲</tspan></text>


<text
   transform="scale(1,-1)"
   y="-371.91095"
   x="483.42719"
   id="text22218-4"
   style="font-size:12px"><tspan
     style="font-size:18px;font-variant:normal;font-weight:normal;writing-mode:lr-tb;fill:#000000;fill-opacity:1;fill-rule:nonzero;stroke:none;font-family:Cambria Math;-inkscape-font-specification:Cambria Math"
     x="483.42719"
     y="-371.91095"
     id="tspan22220-0">ˆ</tspan></text>


</g></g><g
     transform="translate(1.6,0)"
     id="g26942"><path
       inkscape:connector-curvature="0"
       d="m 209.3,335.35 -16.92,23.36"
       style="fill:none;stroke:#000000;stroke-width:1.60000002;stroke-linecap:round;stroke-linejoin:round;stroke-miterlimit:10;stroke-opacity:1;stroke-dasharray:none;marker-start:none;marker-end:url(#Arrow2Mend)"
       id="path102" /><path
       d="M 232.65,352.28 209.3,335.35"
       style="fill:none;stroke:#000000;stroke-width:1.60000002;stroke-linecap:round;stroke-linejoin:round;stroke-miterlimit:10;stroke-opacity:1;stroke-dasharray:none;marker-start:url(#Arrow2Mstart)"
       id="path112"
       inkscape:connector-curvature="0" /><g
       id="g22267"
       transform="translate(-3.6404014,0)"><text
   id="text158"
   transform="matrix(1,0,0,-1,239.28,345.67)"><tspan
     id="tspan160"
     y="0"
     x="0"
     style="font-size:18px;font-variant:normal;font-weight:normal;writing-mode:lr-tb;fill:#000000;fill-opacity:1;fill-rule:nonzero;stroke:none;font-family:Cambria Math;-inkscape-font-specification:Cambria Math">𝐧</tspan></text>


<text
   transform="scale(1,-1)"
   y="-347.0787"
   x="242.40712"
   id="text22218-9"
   style="font-size:12px"><tspan
     style="font-size:18px;font-variant:normal;font-weight:normal;writing-mode:lr-tb;fill:#000000;fill-opacity:1;fill-rule:nonzero;stroke:none;font-family:Cambria Math;-inkscape-font-specification:Cambria Math"
     x="242.40712"
     y="-347.0787"
     id="tspan22220-4">ˆ</tspan></text>


</g><g
       id="g22261"
       transform="translate(-3.6404014,3.2359124)"><text
   id="text118"
   transform="matrix(1,0,0,-1,201.26,356.5)"><tspan
     id="tspan120"
     y="0"
     x="0"
     style="font-size:18px;font-variant:normal;font-weight:normal;writing-mode:lr-tb;fill:#000000;fill-opacity:1;fill-rule:nonzero;stroke:none;font-family:Cambria Math;-inkscape-font-specification:Cambria Math">𝐬</tspan></text>


<text
   transform="scale(1,-1)"
   y="-357.96472"
   x="203.18089"
   id="text22218-8"
   style="font-size:12px"><tspan
     style="font-size:18px;font-variant:normal;font-weight:normal;writing-mode:lr-tb;fill:#000000;fill-opacity:1;fill-rule:nonzero;stroke:none;font-family:Cambria Math;-inkscape-font-specification:Cambria Math"
     x="203.18089"
     y="-357.96472"
     id="tspan22220-8">ˆ</tspan></text>


</g></g><path
     inkscape:connector-curvature="0"
     id="path26926"
     d="m 243.68645,399.27966 50.91103,-56.05933"
     style="fill:none;stroke:#000000;stroke-width:0.40000001;stroke-linecap:butt;stroke-linejoin:miter;stroke-miterlimit:4;stroke-opacity:1;stroke-dasharray:none" /><text
     style="text-align:end;text-anchor:end"
     y="-368.79666"
     x="490.72452"
     transform="scale(1,-1)"
     id="text26962"><tspan
       id="tspan26966"
       y="-368.79666"
       x="490.72452"
       style="font-size:18px;font-variant:normal;font-weight:normal;text-align:end;writing-mode:lr-tb;text-anchor:end;fill:#000000;fill-opacity:1;fill-rule:nonzero;stroke:none;font-family:Cambria Math;-inkscape-font-specification:Cambria Math"
       sodipodi:role="line">Traj.</tspan></text>
</g>

</g></svg>